cert_type_code,cert_type_name,cert_order,use_country_ind,use_jobcode_ind,bypass_validation_ind,show_ind,use_job_code_ind,has_expiry_ind
Basic Safety Training,Basic Safety Training,1,1,1,0,0,1,1
Ship Security Assessment,Ship Security Assessment,5,1,1,0,0,1,1
Crowd Management Training,Crowd Management Training,4,1,1,0,0,1,1
Others,Others,99,0,0,1,1,1,1
Crisis Management Training,Crisis Management Training,3,1,1,0,0,1,1
COP_BST,COP for Basic Safety Training,2,1,1,0,1,1,1
Proficiency In Survival Craft and Rescue Boats - PSCRB,Proficiency In Survival Craft and Rescue Boats - PSCRB,6,1,1,0,0,1,1
COP_PSCRB,COP for Proficiency In Survival Craft and Rescue Boats - PSCRB,7,1,1,0,1,1,1
BT_STCW,"BT (Basic Training STCW A-VI/1-1, 1-2, 1-3, 1-4)",8,0,1,0,1,1,1
BOAT,BOAT (Proficiency in Survival Crafts and Rescue Boat STCW A-VI/2-1),9,0,1,0,1,1,1
AFFT,AFFT (Advance Firefighting STCW A-VI/3),10,0,1,0,1,1,1
DEWT,DEWT (Rating Forming part of Navigational Watch STCW A -II/4),11,0,1,0,1,1,1
DEWT5,DEWT (Rating as able Seafarer Deck STCW A -II/5),12,0,1,0,1,1,1
GMDS,GMDSS (Global Maritime Distress Safety System STCW A-IV/2),13,0,1,0,1,1,1
ECDIS-Specific,ECDIS (Electronic Chart Display and Information System-Specific),14,0,1,0,1,1,1
ELERC,Electro Technical Ratings STCW III/7,15,0,1,0,1,1,1
ENWT,ENWT (Rating forming part of a watch in a manned Engine Room or designated to perform duties in a periodically unmanned Engine Room Watch. STCW (A-III/4),16,0,1,0,1,1,1
ENWT5,Rating as Able Seafarer in a manned Engine Room or designated to perform duties in a periodically unmanned Engine Room Watch . STCW (A-III/5),17,0,1,0,1,1,1
EPA,EPA (Refrigiration Technician Certification),18,0,1,0,1,1,1
TTTI,Train the Trainer Certificate  STCW (A-I/6 Paragraphs: 4-1 & 6-3),19,0,1,0,1,1,1
FSEA,FLAG STATE ENDORSEMENT / ACKNOWLEDGEMENT   ( MALTA OR BAHAMAS),20,0,1,0,1,1,1
SSO,Ship Security Officer             STCW (A-VI/5),21,0,1,0,1,1,1
ACLS,Advance Cardiac Life Support,22,0,1,0,1,1,1
CMAT,CMAT (Crowd Management STCW A-V/2 para 4),23,0,1,0,1,1,1
CMHB,CMHB (Crisis Management and Human Behavior STCW A-V/2 para 6),24,0,1,0,1,1,1
SECALL,Security Awareness   STCW (A-VI/6 par 6-8,25,0,1,0,1,1,1
NS,Nautical School letter of cadetship,26,0,1,0,1,1,1
NBC,National Board Certification with an active collegiate number,27,0,1,0,1,1,1
BLS,Basic Life Support,28,0,1,0,1,1,1
BD,Bachelor Degree on Enviromental/Sciences/Engineering or similar/equivalent education,29,0,1,0,1,1,1
DSDSEC,Seafarer with designated security duties. STCW(A-VI/6 par 6-8) or STSDSD,30,0,1,0,1,1,1
ARPA,ARPA Course,31,1,1,0,1,1,1
EFA,Proficiency in Elementary First Aid,32,1,0,0,1,1,1
FPFF,Fire Prevention and Fire Fighting,33,1,0,0,1,1,1
PST,Personal Survival Techniques,35,1,0,0,1,1,1
PSSR,Personal Safety and Social Responsibilities,36,1,0,0,1,1,1
STSDSD,Security Training for Seafarers with Designated Security Duties,36,1,0,0,0,1,1
BSTR,New Consolidated Certificate (BSTR),37,1,0,0,1,1,1
ECDIS-Generic,Electronic Chart Display and Information System-Generic,38,0,1,0,1,1,1
HBST,HOTEL BASIC SAFETY TRNG STCW,39,0,1,0,1,1,1
EPA1,Refrigeration Technician Certification 1,40,0,1,0,1,1,1
MSTM,Master License STCW A-II/2 Unlimited,41,0,1,0,1,1,1
DEW2,Chief Officer STCW A-II/2 Limited,42,0,1,0,1,1,1
CENG,CHIEF ENGINEER STCW A-III/2 Unlimited,43,0,1,0,1,1,1
WTH2,2ND ENGINEER STCW A-III/2 Limited,44,0,1,0,1,1,1
WTH3,Officer in Charge of Engineering Watch  STCW A- III/1,45,0,1,0,1,1,1
ELEC,Electro Technical Officer STCW III/6,46,0,1,0,1,1,1
DEW3,Officer in charge of Navigational Watch   STCW A-II/1 unlimited,47,0,1,0,1,1,1
MLTA,FLAG STATE ENDORSEMENT / ACKNOWLEDGEMENT ( MALTA OR BAHAMAS) ,48,0,1,0,1,1,1
