Active Departments US,  265 ,,,,,,,
Set ID,Dept ID,Eff Date,Status,Descr,Co,Location,Location Set ID,Short Desc
AZAHQ,0400501,10/1/2017,A,Azamara SG&A,AZA,AZ1050,AZAHQ,AZA
AZAHQ,0400600,10/1/2017,A,AZAOther,AZA,AZ1050,AZAHQ,AZAOther
AZAHQ,0400606,7/1/2018,A,AZA  RES - KEY,AZA,AZAWICH,AZAHQ,TSS
AZAHQ,0400710,10/1/2017,A,710 AZA VP Sales,AZA,AZ1050,AZAHQ,AZA
AZAHQ,0400750,10/1/2017,A,750 Domestic Mktg,AZA,AZ1050,AZAHQ,AZA
AZAHQ,AZA0001,10/1/2017,A,Azamara Corporate,AZA,AZ1050,AZAHQ,AZA Corp
CCCHQ,0500501,2/16/2018,A,CCI Brand Executive 501,CCI,CC1080,CCCHQ,Exe
CCCHQ,0500539,2/10/2018,A,Celebrity HR Shipboard,CCI,CC1050,CCCHQ,Hum
CCCHQ,0500564,2/16/2018,A,Brand Finance 564,CCI,CC1050,CCCHQ,Fin
CCCHQ,0500566,2/16/2018,A,Finance - GTO,CCI,CC1050,CCCHQ,Finance -
CCCHQ,0500567,4/16/2018,A,Celebrity Vacation,CCI,CC1050,CCCHQ,MktC
CCCHQ,0500600,1/8/2018,A,CCI Other,CCI,CC1050,CCCHQ,Oth
CCCHQ,0500609,12/8/2014,A,CEL Reserv/Key Accounts,CCI,WICHITA,CCCHQ,TSS
CCCHQ,0500612,7/22/2016,A,CEL Customer Service,CCI,WICHITA,CCCHQ,TSS
CCCHQ,0500626,12/8/2014,A,CEL Groups/STAR,CCI,WICHITA,CCCHQ,TSS
CCCHQ,0500629,4/16/2018,A,Casino Operations,CCI,CC1050,CCCHQ,Casino Ope
CCCHQ,0500630,4/16/2018,A,Onboard Revenue Ops,CCI,CC1050,CCCHQ,Onboard Re
CCCHQ,0500633,4/16/2018,A,Ops - GTO,CCI,CC1050,CCCHQ,Ops - GTO
CCCHQ,0500640,2/16/2018,A,Hotel Operations,CCI,CC1050,CCCHQ,CCI Hotel
CCCHQ,0500641,2/16/2018,A,Guest Services,CCI,CC1050,CCCHQ,TGSC
CCCHQ,0500642,2/16/2018,A,CCI - TGS F & B,CCI,CC1050,CCCHQ,TGSC
CCCHQ,0500671,8/8/2016,A,CCI Facilities Mgmt,CCI,WICHITA,CCCHQ,Pur
CCCHQ,0500680,2/16/2018,A,Entertainment,CCI,CC1050,CCCHQ,Tgs
CCCHQ,0500687,2/16/2018,A,Marine CEL 687,CCI,CC1050,CCCHQ,MarR
CCCHQ,0500691,2/16/2018,A,Global Marine Tech Services,CCI,CC1050,CCCHQ,MarC
CCCHQ,0500692,2/16/2018,A,Marine Operations CEL,CCI,CC1050,CCCHQ,MarC
CCCHQ,0500702,2/16/2018,A,Target Teams,CCI,CC1050,CCCHQ,SlsC
CCCHQ,0500705,12/15/2015,A,Consumer Outreach Operations,CCI,MIRAMAR,CCCHQ,SlsC
CCCHQ,0500706,12/15/2015,A,Consumer Outreach Outbound Sls,CCI,MIRAMAR,CCCHQ,SlsC
CCCHQ,0500708,12/15/2015,A,CVP Services CEL,CCI,MIRAMAR,CCCHQ,SlsC
CCCHQ,0500710,2/16/2018,A,CCI Sales Admin 710,CCI,CC1080,CCCHQ,SlsC
CCCHQ,0500711,2/16/2018,A,Inside Sales,CCI,CC1080,CCCHQ,SlsC
CCCHQ,0500712,2/16/2018,A,Incentive Sales,CCI,CC1080,CCCHQ,SlsC
CCCHQ,0500713,3/28/2016,A,Sales CVP CEL,CCI,MIRAMAR,CCCHQ,SlsC
CCCHQ,0500714,2/16/2018,A,National Sales,CCI,CC1080,CCCHQ,SlsC
CCCHQ,0500715,4/9/2018,A,CELSales Analysis & Automation,CCI,CC1080,CCCHQ,SlsC
CCCHQ,0500716,2/16/2018,A,Sales Northeast,CCI,SALES - NE,CCCHQ,SlsC
CCCHQ,0500717,2/16/2018,A,Sales Southeast,CCI,SALES - SE,CCCHQ,SlsC
CCCHQ,0500718,2/16/2018,A,718 CCI Sales-Canada,CCI,CC1080,CCCHQ,SlsC
CCCHQ,0500719,2/16/2018,A,Sales West,CCI,SALES - W,CCCHQ,SlsC
CCCHQ,0500720,2/16/2018,A,Sales Central Region,CCI,SALES - MA,CCCHQ,SlsC
CCCHQ,0500750,2/16/2018,A,CCI Domestic Mktg. 750,CCI,CC1080,CCCHQ,MktC
CCCHQ,0500751,2/16/2018,A,CCI Marketing Svc. 751,CCI,CC1080,CCCHQ,MktC
CCCHQ,0500752,2/16/2018,A,Top DMA Marketing Activities,CCI,CC1050,CCCHQ,MktC
CCCHQ,0500757,2/16/2018,A,Loyalty & Direct Marketing,CCI,CC1080,CCCHQ,MktC
CCCHQ,0500759,2/16/2018,A,Canada Marketing Activities,CCI,CC1050,CCCHQ,MktC
CCCHQ,0500760,4/16/2018,A,760 Market Planning,CCI,CC1080,CCCHQ,MktC
CCCHQ,0500761,4/16/2018,A,CCI Revenue Mgmt,CCI,CC1080,CCCHQ,Rev
CCCHQ,0500762,2/16/2018,A,CCI International #762,CCI,CC1080,CCCHQ,Int
CCCHQ,0500763,4/16/2018,A,763 E-Marketing & distribution,CCI,CC1080,CCCHQ,MktC
CCCHQ,0500765,4/16/2018,A,CCI Corporate Communications,CCI,CC1050,CCCHQ,Com
CCCHQ,0500769,2/16/2018,A,GTO Cruisetour,CCI,CC1080,CCCHQ,GTO Cruise
CCCHQ,0500772,8/8/2016,A,Onboard Cruise Sales,CCI,CC1080,CCCHQ,SlsC
CCCHQ,0500778,2/16/2018,A,Celebrity Vacations,CCI,CC1050,CCCHQ,MktC
CCCHQ,0500780,2/16/2018,A,Atlanta DMA,CCI,SALES - SE,CCCHQ,MktC
CCCHQ,0500781,2/16/2018,A,Boston DMA,CCI,SALES - NE,CCCHQ,MktC
CCCHQ,0500782,2/16/2018,A,Chicago DMA,CCI,SALES - MA,CCCHQ,MktC
CCCHQ,0500783,2/16/2018,A,Dallas Fort Worth DMA,CCI,SALES - MA,CCCHQ,MktC
CCCHQ,0500784,2/16/2018,A,Los Angeles DMA,CCI,SALES - W,CCCHQ,MktC
CCCHQ,0500785,2/16/2018,A,New York DMA,CCI,SALES - NE,CCCHQ,MktC
CCCHQ,0500786,2/16/2018,A,Philadelphia DMA,CCI,SALES - NE,CCCHQ,MktC
CCCHQ,0500787,2/16/2018,A,San Francisco DMA,CCI,SALES - W,CCCHQ,MktC
CCCHQ,0500788,2/16/2018,A,Toronto DMA,CCI,SLS_CAN,CCCHQ,MktC
CCCHQ,0500789,2/16/2018,A,Washington DC DMA,CCI,SALES - SE,CCCHQ,MktC
CCCHQ,0500796,4/16/2018,A,Celebrity Loyalty,CCI,CC1080,CCCHQ,MktC
CCCHQ,0500797,4/16/2018,A,Celebrity Web,CCI,CC1080,CCCHQ,SlsC
CCCHQ,0500799,4/1/2018,A,Consumer Insights Unit,CCI,CC1050,CCCHQ,Consumer I
CCCHQ,0500820,2/16/2018,A,Marketing - GTO,CCI,CC1080,CCCHQ,Marketing
CCCHQ,0500822,2/16/2018,A,Galapagos,CCI,CC1050,CCCHQ,Galapagos
CCCHQ,CCC0001,2/16/2018,A,CCI Corporate,CCI,CC1050,CCCHQ,Corp
CCCHQ,CCC0002,2/16/2018,A,CCI-Marketing,CCI,CC1080,CCCHQ,MktC
CCCHQ,CCC0003,2/16/2018,A,CCI-Marine,CCI,CC1050,CCCHQ,MarC
CCCHQ,CCC0004,2/16/2018,A,CCI-Customer Relations,CCI,CC1080,CCCHQ,Res
CCCHQ,CCC0005,2/16/2018,A,CCI-Total Guest Satisfaction,CCI,CC1050,CCCHQ,Tgs
CCCHQ,CCC0006,8/15/2012,A,CCI-International,CCI,CC1080,CCCHQ,IntC
CCCHQ,CCC0007,10/29/2015,A,CCI-Other,CCI,CC1050,CCCHQ,OthC
CCCHQ,CCC0008,2/16/2018,A,CCI-Sales,CCI,CC1080,CCCHQ,SlsC
CCCHQ,CCC0009,1/1/1901,A,CCI-Executive,CCI,CC1050,CCCHQ,Exe
CCCHQ,CCC0010,8/15/2012,A,CCI-Communications,CCI,CC1050,CCCHQ,Com
CCCHQ,CCC0011,10/29/2015,A,CCI-Human Resources,CCI,CC1050,CCCHQ,Hum
CCCHQ,CCC0012,8/15/2012,A,CCI-Strategic Planning,CCI,CC1080,CCCHQ,Pln
CCCHQ,CCC0013,11/6/2008,A,CCI-New Build,CCI,CC1080,CCCHQ,Nbd
CCCHQ,CCC0014,2/16/2018,A,CCI-Revenue,CCI,CC1080,CCCHQ,Rev
CCCHQ,CCC0015,8/15/2012,A,CCI-Air/Sea,CCI,CC1080,CCCHQ,A&S
CCCHQ,CCC0016,2/16/2018,A,CCI Business Solutions,CCI,CC1080,CCCHQ,Bsl
CLCLL,3000501,8/8/2016,A,Cape Liberty Port -Bayonne,CLP,BAYONNE,CLCLL,Tgs
CLCLL,3000600,10/29/2015,A,Cape Liberty - Other,CLP,BAYONNE,CLCLL,Oth
CLCLL,3100501,1/1/2016,A,501 Admin Cape Liberty Transf,CLP,BAYONNE,CLCLL,Admin
CLCLL,8600501,1/1/2016,A,Miami Cruise Terminal,CLP,TERMINAL A,CLCLL,Miami Crui
CLCLL,CAPE LIBER,6/25/2013,A,Cape Liberty Port -Bayonne,CLP,BAYONNE,CLCLL,Bayonne
CLCLL,CLC0001,6/25/2013,A,Cape Liberty -Operations,CLP,BAYONNE,CLCLL,Bayonne
CLTHQ,3100501,1/1/2016,A,501 Admin Cape Liberty Transf,CLT,BAYONNE,CLTHQ,Admin
CLTHQ,3100600,2/15/2018,A,Severance,CLT,BAYONNE,CLTHQ,SEV
CLTHQ,CLT00001,1/1/2016,A,CLT Super Department,CLT,BAYONNE,CLTHQ,Super
GEOHQ,17100600,2/13/2017,A,GEO Other,GEO,GE1050,GEOHQ,SEVERANCE
GEOHQ,17100664,6/18/2018,A,"RCL GEO, LLC.",GEO,BRICKELL,GEOHQ,GEO
GEOHQ,GE00001,2/13/2017,A,GEO Corporate,GEO,GE1050,GEOHQ,GEO Corp
RCCHQ,0200500,1/8/2018,A,RCI Executive Dept 500,RCI,RC1050,RCCHQ,Exe
RCCHQ,0200501,5/1/2017,A,RCI Brand Executive 501,RCI,RC1050,RCCHQ,Exe
RCCHQ,0200502,1/1/2018,A,Alaska Tours,RCI,RC1050,RCCHQ,Exe
RCCHQ,0200503,7/16/2018,A,Global Gov and Comm Relations,RCI,RC1050,RCCHQ,GovRel
RCCHQ,0200505,10/22/2015,A,Corporate Communications,RCI,RC1050,RCCHQ,Com
RCCHQ,0200510,6/11/2018,A,IT Security & Compliance,RCI,MIRAMAR,RCCHQ,I/T
RCCHQ,0200512,2/12/2018,A,IT Global Support & Services,RCI,RC1080,RCCHQ,IT
RCCHQ,0200513,2/12/2018,A,IT Applications Operations,RCI,MIRAMAR,RCCHQ,IT Applica
RCCHQ,0200514,3/1/2018,A,IT Enterprise Data & Cognitive,RCI,MIRAMAR,RCCHQ,IT Enterpr
RCCHQ,0200515,2/12/2018,A,IT - CTO Trade Srvs & Call Ctr,RCI,MIRAMAR,RCCHQ,IT - CTO T
RCCHQ,0200519,8/8/2016,A,NB Project Design,RCI,NEWBUILD,RCCHQ,NBuild
RCCHQ,0200523,8/21/2017,A,NB Project Management,RCI,NEWBUILD,RCCHQ,NBuild
RCCHQ,0200525,1/1/2015,A,Advance Emission Purification,RCI,RC1050,RCCHQ,Emission
RCCHQ,0200529,2/13/2017,A,Compliance & Ethics,RCI,RC1050,RCCHQ,LegalR
RCCHQ,0200530,2/13/2017,A,RCI Legal 530,RCI,RC1050,RCCHQ,LegalR
RCCHQ,0200531,10/30/2015,A,Litigation and Claims,RCI,RC1050,RCCHQ,RiskM
RCCHQ,0200533,10/27/2015,A,Commercial Development,RCI,RC1050,RCCHQ,ComDev
RCCHQ,0200536,2/10/2018,A,HRIS,RCI,RC1050,RCCHQ,Hum
RCCHQ,0200537,1/8/2018,A,HR Total Rewards,RCI,RC1050,RCCHQ,Hum
RCCHQ,0200538,1/8/2018,A,Training and Development,RCI,RC1050,RCCHQ,Hum
RCCHQ,0200539,2/10/2018,A,RCI HR Shipboard,RCI,RC1050,RCCHQ,Hum
RCCHQ,0200540,1/8/2018,A,RCI HR Executive,RCI,RC1050,RCCHQ,Hum
RCCHQ,0200543,2/10/2018,A,RCI Corporate HR Services,RCI,RC1050,RCCHQ,Hum
RCCHQ,0200544,1/8/2018,A,Recruiting,RCI,RC1050,RCCHQ,Hum
RCCHQ,0200545,1/8/2018,A,Internship,RCI,RC1050,RCCHQ,Hum
RCCHQ,0200547,2/15/2017,A,Corporate Responsibility,RCI,RC1050,RCCHQ,Com
RCCHQ,0200548,2/10/2018,A,Shipboard EE Services,RCI,RC1080,RCCHQ,Hum
RCCHQ,0200550,2/13/2017,A,RCI Accounting,RCI,RC1050,RCCHQ,Acc
RCCHQ,0200551,10/30/2015,A,Risk Management,RCI,RC1050,RCCHQ,RiskM
RCCHQ,0200553,8/1/2017,A,Revenue Planning & Analysis,RCI,RC1050,RCCHQ,Rev
RCCHQ,0200554,11/7/2016,A,Digital,RCI,RC1050,RCCHQ,Digital
RCCHQ,0200555,2/13/2017,A,Audit and Advisory Services,RCI,RC1050,RCCHQ,Audit
RCCHQ,0200556,8/8/2016,A,Crew Medical and Legal Service,RCI,RC1050,RCCHQ,RiskM
RCCHQ,0200557,5/24/2017,A,Medical and Public Health,RCI,RC1050,RCCHQ,Safety
RCCHQ,0200560,2/13/2017,A,RCI Treasury,RCI,RC1050,RCCHQ,Treas
RCCHQ,0200561,3/5/2018,A,Corporate Tax,RCI,RC1050,RCCHQ,TaxCorp
RCCHQ,0200562,10/1/2017,A,Investor Relations,RCI,RC1050,RCCHQ,InvRel
RCCHQ,0200564,11/1/2017,A,RCI Finance,RCI,RC1050,RCCHQ,Fin
RCCHQ,0200565,12/15/2017,A,RCI Corporate Planning,RCI,RC1050,RCCHQ,Planning
RCCHQ,0200569,2/13/2017,A,Corporate Development,RCI,RC1050,RCCHQ,CorpDev
RCCHQ,0200570,2/13/2017,A,Corporate Strategy,RCI,RC1050,RCCHQ,ContImprv
RCCHQ,0200571,2/12/2018,A,IT Software Engineering,RCI,MIRAMAR,RCCHQ,I/T
RCCHQ,0200572,2/12/2018,A,IT-Finance & Programs Adm,RCI,MIRAMAR,RCCHQ,I/T
RCCHQ,0200573,6/1/2018,A,IT-Operations & Technology,RCI,MIRAMAR,RCCHQ,I/T
RCCHQ,0200574,2/12/2018,A,"IT-GBS-Rev/AirSea, Call Center",RCI,RC1050,RCCHQ,I/T
RCCHQ,0200575,2/12/2018,A,"IT-GBS-Sales, Mktg & Int'l",RCI,MIRAMAR,RCCHQ,I/T
RCCHQ,0200576,6/1/2018,A,IT - Shipboard Tech & Ops,RCI,MIRAMAR,RCCHQ,I/T
RCCHQ,0200577,2/12/2018,A,IT Tech Infra & Engineering,RCI,MIRAMAR,RCCHQ,I/T
RCCHQ,0200578,2/12/2018,A,IT- Product Owner,RCI,RC1050,RCCHQ,I/T
RCCHQ,0200579,2/12/2018,A,IT Project Mgmt Office,RCI,MIRAMAR,RCCHQ,I/T
RCCHQ,0200580,8/8/2016,A,RCI Purchasing - Admin.,RCI,RC1050,RCCHQ,Pur
RCCHQ,0200582,8/8/2016,A,Purchasing - Newbuild 582,RCI,NEWBUILD,RCCHQ,NBuild
RCCHQ,0200584,8/8/2016,A,RCI Purchasing - F & B,RCI,RC1050,RCCHQ,Pur
RCCHQ,0200586,8/8/2016,A,RCI Purchasing - Technical,RCI,RC1050,RCCHQ,Pur
RCCHQ,0200588,8/8/2016,A,Fuel Purchasing,RCI,RC1050,RCCHQ,Pur
RCCHQ,0200590,8/8/2016,A,RCI Purchasing - Logistics,RCI,RC1050,RCCHQ,Pur
RCCHQ,0200593,5/24/2017,A,Global Security,RCI,RC1050,RCCHQ,Safety
RCCHQ,0200594,8/8/2016,A,Newbuilding Executive & Financ,RCI,RC1050,RCCHQ,NBuild
RCCHQ,0200595,5/24/2017,A,Maritime Safety,RCI,RC1050,RCCHQ,Safety
RCCHQ,0200596,9/1/2017,A,Environmental Stewardship,RCI,RC1050,RCCHQ,Safety
RCCHQ,0200598,2/15/2018,A,Energy Management,RCI,RC1050,RCCHQ,Planning
RCCHQ,0200599,11/27/2017,A,NB Technical Revitalization,RCI,NEWBUILD,RCCHQ,NBuild
RCCHQ,0200601,1/8/2018,A,RCI Other,RCI,RC1050,RCCHQ,Oth
RCCHQ,0200606,2/16/2018,A,606 AZA Reserv/Key Accts,RCI,MIRAMARTSS,RCCHQ,TSS
RCCHQ,0200607,2/16/2018,A,Training Q/A,RCI,MIRAMARTSS,RCCHQ,TSS
RCCHQ,0200608,2/16/2018,A,OCU,RCI,MIRAMARTSS,RCCHQ,TSS
RCCHQ,0200610,2/16/2018,A,RES/Key,RCI,OREGON,RCCHQ,TSS
RCCHQ,0200611,2/16/2018,A,Customer Service,RCI,MIRAMARTSS,RCCHQ,TSS
RCCHQ,0200613,2/16/2018,A,Access,RCI,RC1050,RCCHQ,TSS
RCCHQ,0200615,7/22/2016,A,Guest Travel Services,RCI,RC1080,RCCHQ,A&S
RCCHQ,0200616,8/8/2016,A,GTS Support,RCI,RC1080,RCCHQ,A&S
RCCHQ,0200620,7/22/2016,A,GTS Operation,RCI,RC1080,RCCHQ,A&S
RCCHQ,0200621,7/22/2016,A,GTS ETT,RCI,RC1080,RCCHQ,A&S
RCCHQ,0200622,6/6/2016,A,Port Activities,RCI,RCFLPIER,RCCHQ,Tgs
RCCHQ,0200623,5/4/2017,A,Deployment and Itinerary Plan,RCI,RC1080,RCCHQ,Rev
RCCHQ,0200624,2/16/2018,A,Loyalty,RCI,OREGON,RCCHQ,TSS
RCCHQ,0200625,2/16/2018,A,Groups/STAR,RCI,OREGON,RCCHQ,TSS
RCCHQ,0200627,3/6/2017,A,Port Services,RCI,RC1050,RCCHQ,Tgs
RCCHQ,0200629,5/1/2017,A,Casino Operations,RCI,RC1050,RCCHQ,TGS
RCCHQ,0200630,5/1/2017,A,Onboard Revenue Operations,RCI,RC1050,RCCHQ,Tgs
RCCHQ,0200633,5/1/2017,A,Ops - GTO,RCI,RC1050,RCCHQ,Ops - GTO
RCCHQ,0200635,2/15/2018,A,Facilities and Refurbishment,RCI,RC1050,RCCHQ,Tgs
RCCHQ,0200640,5/1/2017,A,Hotel Operations,RCI,RC1050,RCCHQ,Tgs
RCCHQ,0200641,5/1/2017,A,Guest Services,RCI,RC1050,RCCHQ,Tgs
RCCHQ,0200642,11/1/2017,A,Food & Beverage,RCI,RC1050,RCCHQ,TGS
RCCHQ,0200644,5/1/2017,A,Hotel Performance,RCI,RC1050,RCCHQ,Hotel Perf
RCCHQ,0200646,6/1/2018,A,Newbuild & Modernization Prog.,RCI,RC1050,RCCHQ,Newbuild &
RCCHQ,0200650,11/1/2017,A,Global Tour Operations,RCI,RC1050,RCCHQ,Tgs
RCCHQ,0200665,2/16/2018,A,Lost Luggage & Admin,RCI,MIRAMARTSS,RCCHQ,TSS
RCCHQ,0200666,2/16/2018,A,Correspondence,RCI,MIRAMARTSS,RCCHQ,TSS
RCCHQ,0200670,10/23/2015,A,RCI Facilities Management,RCI,RC1050,RCCHQ,Pur
RCCHQ,0200671,8/8/2016,A,RCI Facilities Mgmt - Wichita,RCI,WICHITA,RCCHQ,Pur
RCCHQ,0200672,10/23/2015,A,Facilities Mgmt - Oregon,RCI,OREGON,RCCHQ,Pur
RCCHQ,0200680,5/1/2017,A,Fleet Entertainment,RCI,RC1050,RCCHQ,Tgs
RCCHQ,0200682,3/2/2018,A,Onboard Sales,RCI,RC1050,RCCHQ,Tgs
RCCHQ,0200683,2/15/2018,A,Fleet Technical Operations,RCI,RC1050,RCCHQ,RCI Marine
RCCHQ,0200684,2/15/2018,A,Accommodations & Refurbishment,RCI,RC1050,RCCHQ,Accommodat
RCCHQ,0200685,2/15/2018,A,Marine Composite,RCI,RC1050,RCCHQ,Hum
RCCHQ,0200686,2/15/2018,A,"Risk, Safety & Compliance",RCI,RC1050,RCCHQ,"Risk, Safe"
RCCHQ,0200687,2/15/2018,A,Marine CEL,RCI,RC1050,RCCHQ,MarC
RCCHQ,0200688,2/15/2018,A,Fleet Optimization,RCI,RC1050,RCCHQ,I/T
RCCHQ,0200689,5/1/2017,A,Marine RCI,RCI,RC1050,RCCHQ,Hum
RCCHQ,0200691,2/15/2018,A,Global Marine Tech Services,RCI,RC1050,RCCHQ,MarR
RCCHQ,0200692,2/15/2018,A,Marine Operations,RCI,RC1050,RCCHQ,MarR
RCCHQ,0200703,2/16/2018,A,RCI - Customer Outreach Ops,RCI,MIRAMARTSS,RCCHQ,SlsR
RCCHQ,0200704,2/16/2018,A,Consumer Outreach Groups Sale,RCI,RC1050,RCCHQ,SlsR
RCCHQ,0200705,2/16/2018,A,CVP Operations RCI,RCI,MIRAMAR,RCCHQ,SlsR
RCCHQ,0200706,2/16/2018,A,Consumer Outreach Outbound Sal,RCI,MIRAMARTSS,RCCHQ,SlsR
RCCHQ,0200708,2/16/2018,A,708 CVP Service,RCI,OREGON,RCCHQ,SlsR
RCCHQ,0200709,2/16/2018,A,eDistribution,RCI,RC1080,RCCHQ,SlsR
RCCHQ,0200710,10/23/2015,A,VP Sales 710,RCI,RC1080,RCCHQ,SlsR
RCCHQ,0200711,10/23/2015,A,Inside Sales,RCI,RC1080,RCCHQ,SlsR
RCCHQ,0200713,2/16/2018,A,Certified Vacation Planning,RCI,OREGON,RCCHQ,SlsR
RCCHQ,0200714,10/23/2015,A,RCI National & Coporate 714,RCI,RC1080,RCCHQ,SlsR
RCCHQ,0200715,10/23/2015,A,Sales Analysis & Automation,RCI,RC1080,RCCHQ,SlsR
RCCHQ,0200716,10/23/2015,A,Sales North East 716,RCI,RC1080,RCCHQ,SlsR
RCCHQ,0200717,10/23/2015,A,RCI Sales - SE 717,RCI,RC1080,RCCHQ,SlsR
RCCHQ,0200718,10/23/2015,A,Sales - Canada 718,RCI,RC1080,RCCHQ,SlsR
RCCHQ,0200719,10/23/2015,A,RCI Sales - West 719,RCI,RC1080,RCCHQ,SlsR
RCCHQ,0200721,10/23/2015,A,RCI Sales - Mid West 721,RCI,RC1080,RCCHQ,SlsR
RCCHQ,0200727,10/23/2015,A,Corp/ Incentives & FCC,RCI,RC1050,RCCHQ,SlsR
RCCHQ,0200728,10/23/2015,A,Sales Comm.&Special Events,RCI,RC1050,RCCHQ,SlsR
RCCHQ,0200730,5/1/2016,A,International Executive G&A,RCI,RC1050,RCCHQ,SlsR
RCCHQ,0200734,5/1/2016,A,Asia Pacific,RCI,RC1080,RCCHQ,IntR
RCCHQ,0200736,2/16/2018,A,736 IR Trade Support & Service,RCI,RC1050,RCCHQ,TSS
RCCHQ,0200747,5/1/2017,A,747 Intl Market Planning - US,RCI,RC1080,RCCHQ,IntR
RCCHQ,0200750,10/13/2016,A,RCI Domestic Mktg. 750,RCI,RC1080,RCCHQ,MktR
RCCHQ,0200753,2/16/2018,A,753 MIA Operation& Sales Sup,RCI,RC1080,RCCHQ,TSS
RCCHQ,0200754,2/16/2018,A,RCI Guest Information,RCI,RC1080,RCCHQ,TSS
RCCHQ,0200755,10/23/2015,A,RCI Creative Services Sales,RCI,RC1080,RCCHQ,SlsR
RCCHQ,0200757,10/13/2016,A,Mktg.One to One Communications,RCI,RC1080,RCCHQ,MktR
RCCHQ,0200761,2/13/2017,A,RCI Revenue Management 761,RCI,RC1080,RCCHQ,Rev
RCCHQ,0200763,4/27/2017,A,Mktg. Digital Marketing,RCI,RC1080,RCCHQ,MktR
RCCHQ,0200765,7/3/2018,A,RCI Corp Communications,RCI,RC1050,RCCHQ,Com
RCCHQ,0200773,5/11/2018,A,Launch Creative,RCI,RC1050,RCCHQ,MktR
RCCHQ,0200775,2/16/2018,A,Club Royal,RCI,OREGON,RCCHQ,SlsR
RCCHQ,0200799,10/13/2016,A,Consumer Insight Unit,RCI,RC1080,RCCHQ,MktR
RCCHQ,0200820,5/1/2018,A,Marketing GTO,RCI,RC1080,RCCHQ,Marketing
RCCHQ,0200821,3/1/2017,A,Sales - GTO,RCI,RC1050,RCCHQ,Sales - GT
RCCHQ,0200825,1/1/2018,A,Product Development,RCI,RC1080,RCCHQ,Product De
RCCHQ,8600501,1/1/2016,A,Miami Cruise Terminal,RCI,TERMINAL A,RCCHQ,Miami Crui
RCCHQ,RCC0001,1/2/1901,A,RCI Corporate,RCI,RC1050,RCCHQ,Cor
RCCHQ,RCC0002,10/29/2015,A,RCI-Financial Services,RCI,RC1050,RCCHQ,Acc
RCCHQ,RCC0003,6/1/2015,A,RCI Crown & Anchor Clubs,RCI,RC1050,RCCHQ,Crw
RCCHQ,RCC0004,1/1/1901,A,RCI-Executive,RCI,RC1050,RCCHQ,Exe
RCCHQ,RCC0005,7/1/2015,A,RCI-Human Resources,RCI,RC1050,RCCHQ,Hum
RCCHQ,RCC0006,10/28/2015,A,RCI-Information Technology,RCI,RC1050,RCCHQ,I/T
RCCHQ,RCC0007,6/25/2013,A,RCI-International,RCI,RC1080,RCCHQ,Int
RCCHQ,RCC0008,11/1/2008,A,RCI-New Build,RCI,RC1050,RCCHQ,NBuild
RCCHQ,RCC0009,10/29/2015,A,RCI-Other,RCI,RC1050,RCCHQ,Oth
RCCHQ,RCC0010,7/1/2015,A,RCI-Treasury & Planning,RCI,RC1050,RCCHQ,Pln
RCCHQ,RCC0011,6/25/2013,A,RCI-Purchasing,RCI,RC1050,RCCHQ,Pur
RCCHQ,RCC0012,12/8/2014,A,RCI TSS,RCI,RC1080,RCCHQ,TSS
RCCHQ,RCC0013,7/1/2015,A,RCI-Revenue,RCI,RC1080,RCCHQ,Rev
RCCHQ,RCC0014,11/1/2008,A,RCI-Groups,RCI,RC1080,RCCHQ,TSS
RCCHQ,RCC0015,11/1/2008,A,RCI-Marketing,RCI,RC1080,RCCHQ,MktR
RCCHQ,RCC0016,11/1/2008,A,RCI-Marine,RCI,RC1050,RCCHQ,MarR
RCCHQ,RCC0017,1/1/1901,A,RCI-Total Guest Satisfaction,RCI,RC1050,RCCHQ,Tgs
RCCHQ,RCC0018,7/1/2015,A,RCI-Sales,RCI,RC1080,RCCHQ,SlsR
RCCHQ,RCC0019,7/1/2015,A,RCI-Air/Sea,RCI,RC1080,RCCHQ,A&S
RCCHQ,RCC0020,6/25/2013,A,RCI Business Solutions 510,RCI,RC1080,RCCHQ,Bsl
RCCHQ,RCC0021,7/29/2015,A,RCI Market Planning 760,RCI,RC1080,RCCHQ,MktPlan
RCCHQ,RCC0022,11/1/2008,A,RCI Risk Management,RCI,RC1050,RCCHQ,RiskM
RCCHQ,RCC0023,4/30/2014,A,RCI Safety & Environment,RCI,RC1050,RCCHQ,Safety
RCCHQ,RCC0024,6/25/2013,A,RCI-Communications,RCI,RC1050,RCCHQ,Com
RCCHQ,VEN0001,10/29/2015,A,Vendors and Contractors,RCI,VENDOR PHL,RCCHQ,VenContr
RCTHQ,RCT0001,5/4/2015,A,RCT - Corporate Headquarters,RCT,RCTMIA,RCTHQ,Rct
SSBLC,SSB001,1/1/2006,A,Scholar Ship Program,SSP,SSBLC,SSBLC,SSP
