CTRAC REQ DUMP,  321 ,,,,,,,,,,,,,,,,,,,,,,,,,,,,,,,,,
Job Opening,Job Code,Job Family,Position,Created,Status,Stat Dt,Openings,Target Openings,Opnings to Fill,Unit,Dept ID,Descr,Co,Location,Posting Title,Justification,Req Sent TALEO,Rcl Comments,Rcl HR Form ID,Rcl HR Form Typ,Int/Ext,Req Type,Job Type,ID Replacement,Name,MgrID,Name,Recruiter,Name,Status,Descr,Country,State,Added By
539749,RES228,ICLER,00009955,7/3/2017,010,1/3/2017,1,1,L,RCCHQ,0200611,Customer Service,RCI,OREGON,"Advocate,Post Gst Rel-Call Ctr",,Y,,,,N,NEW,Standard Requisition,124370,"Johnson,Alesha Leighan",118817,"Icenogle,Beth A",110594,"Sturgeon,Amanda E",010,010-Open,USA,OR,HRSHCR
539774,INF099,MGR,00003534,1/4/2017,010,1/4/2017,1,1,L,RCCHQ,0200573,IT-Operations & Technology,RCI,MIRAMAR,Manager,,Y,,,,Y,RPL,Standard Requisition,105290,"Sedano,Eneida M",111613,"Jacques,Pascale",114996,"Dunlap,Judith E",010,010-Open,USA,FL,HRSHJD
539976,FIN128,SUPV,00002822,1/24/2017,010,4/27/2018,1,1,L,RCCHQ,0200594,Newbuilding Executive & Financ,RCI,RC1050,"Lead, Financial-Newbuild",Replacing Alfredo Romero and Approved,Y,,,,N,RPL,Standard Requisition,126545,"Fisher,Caitlin Clare",119000,"Schneider,Daniel S.",117603,"Mesa,Karina Almendral",010,010-Open,USA,FL,HRSHKA
540139,SLS792,SUPV,00010441,2/9/2017,010,4/27/2018,1,1,L,CCCHQ,0500772,Onboard Cruise Sales,CCI,CC1080,"Lead, Gust Sls & Srv Analytics",Backfill for Mary Romano,Y,,,,N,RPL,Standard Requisition,109208,"Romano,Mary Cornelia",100191,"Yanda,Michelle Sue",111681,"Lopez,Haydelis",010,010-Open,USA,FL,HRSHJV
540195,DIG003,MGR,00012988,2/14/2017,010,2/14/2017,1,1,L,RCCHQ,0200554,Digital,RCI,RC1050,"Sr Mgr, Product",,Y,,,,Y,NEW,Standard Requisition,128420,"Major,Derek Andrew",128367,"Besecker,Kurt",114996,"Dunlap,Judith E",010,010-Open,USA,FL,HRSHJD
540222,TTK012,MGR,00010131,2/16/2017,010,4/27/2018,1,1,L,GEOHQ,17100664,"RCL GEO, LLC.",GEO,WESTON-GEO,"Mgr, Marketing",,,,,,N,RPL,Standard Requisition,124332,"Zech,Jared Douglas",124332,"Zech,Jared Douglas",111708,"Dunn,Michelle",010,010-Open,USA,FL,HRSHMC
540287,INF361,PROF,00001942,2/23/2017,010,2/23/2017,1,1,L,RCCHQ,0200573,IT-Operations & Technology,RCI,NEWBUILD,"Senior Engineer, IT/AVNewBuild",,Y,,,,Y,RPL,Standard Requisition,112697,"Owen,Andrew D",110251,"Boyer,William K",114996,"Dunlap,Judith E",010,010-Open,USA,FL,HRSHJD
540401,SLS806,ICLER,00010934,3/8/2017,010,8/9/2017,1,1,L,RCCHQ,0200706,Consumer Outreach Outbound Sal,RCI,OREGON,"Agent, CO Outbound RCI",Termination generated job requisition,Y,,,,N,RPL,Standard Requisition,122237,"Garrahy,Eric A.",114446,"Barrocas,Ruth E.",110594,"Sturgeon,Amanda E",010,010-Open,USA,OR,HRSHJL
540534,MKT226,SUPV,00000436,3/17/2017,010,4/27/2018,1,1,L,CCCHQ,0500797,Celebrity Web,CCI,CC1080,"Mgr, E-Commerce Product",Backfill for Jessica Haire,Y,,,,N,RPL,Standard Requisition,124912,"Haire,Jessica",125329,"Otero,Melissa James",111681,"Lopez,Haydelis",010,010-Open,USA,FL,HRSHJV
540535,MKT221,SUPV,00009395,3/17/2017,010,4/27/2018,1,1,L,CCCHQ,0500797,Celebrity Web,CCI,CC1080,"Mgr, Digital Promotion Product",Backfill for Adrienne Brown,Y,,,,N,RPL,Standard Requisition,123373,"Brown,Adrienne M.",125329,"Otero,Melissa James",110785,"Montiel,Lyssett Lourdes",010,010-Open,USA,FL,HRSHJV
540589,INF099,MGR,00002772,3/23/2017,010,7/12/2017,1,1,L,RCCHQ,0200576,IT - Shipboard Tech & Ops,RCI,MIRAMAR,Manager,Transfer/Promotion generated job requisition,Y,,,,N,RPL,Standard Requisition,119198,"Sayler,Stephen C",100206,"Sinclair,Mark",114996,"Dunlap,Judith E",010,010-Open,USA,FL,HRSHJD
540612,MKT625,PROF,00009422,3/27/2017,010,4/27/2018,1,1,L,CCCHQ,0500750,CCI Domestic Mktg. 750,CCI,CC1080,"Spec, Marketing Graphic Designer",Backfill for Dustin Gladwell,Y,,,,N,RPL,Standard Requisition,126441,"Gladwell,Dustin B.",128011,"Goodis,Melissa Beth",110785,"Montiel,Lyssett Lourdes",010,010-Open,USA,FL,HRSHJV
540658,DIG011,MGR,00013109,3/30/2017,010,3/30/2017,1,1,L,RCCHQ,0200554,Digital,RCI,RC1050,"Mgr, Innovation PM",Had to reopen req to update title,Y,,,,N,NEW,Standard Requisition,128516,"Mchale,Mary Katherine",128365,"Hasty,Joseph",114996,"Dunlap,Judith E",010,010-Open,USA,FL,HRSHJV
540697,INF346,PROF,00003443,4/3/2017,010,4/27/2018,1,1,L,RCCHQ,0200575,"IT-GBS-Sales, Mktg & Int'l",RCI,MIRAMAR,Analyst,Backfill for Patrick Burke,Y,,,,N,RPL,Standard Requisition,125269,"Burke,Patrick M.",100256,"Guerra,Ana M",114996,"Dunlap,Judith E",010,010-Open,USA,FL,HRSHJV
540734,INF332,SUPV,00002915,4/6/2017,010,4/27/2018,1,1,L,RCCHQ,0200576,IT - Shipboard Tech & Ops,RCI,MIRAMAR,"Architect, IT Functional",Replacement for Jason Bonko,Y,,,,N,RPL,Standard Requisition,119198,"Sayler,Stephen C",109213,"Hurtado,John P",114996,"Dunlap,Judith E",010,010-Open,USA,FL,HRSHJV
540767,MKT611,PROF,00000543,4/10/2017,010,4/27/2018,1,1,L,CCCHQ,0500711,Inside Sales,CCI,CC1080,Graphic Dsgnr/SocialMedia CCI,Backfill for Maria Otamendi. Repurposed role.,Y,,,,N,RPL,Standard Requisition,120863,"Ugas Jr,Pedro",113323,"McAfee,Karl R",110785,"Montiel,Lyssett Lourdes",010,010-Open,USA,FL,HRSHJV
540865,INT001,CLER,00013215,4/13/2017,010,4/14/2017,1,1,L,CCCHQ,0500750,CCI Domestic Mktg. 750,CCI,CC1040,Intern F/T,Summer 2017 Internship,Y,,,,N,NEW,Standard Requisition,121928,"Bouza,Vanessa",121928,"Bouza,Vanessa",110785,"Montiel,Lyssett Lourdes",010,010-Open,USA,FL,HRSHCTU
540975,INT001,CLER,00013224,4/21/2017,010,4/21/2017,1,1,L,RCCHQ,0200594,Newbuilding Executive & Financ,RCI,RC1050,Intern F/T,Summer 2017 Internship,Y,,,,N,NEW,Standard Requisition,103940,"Miorelli,Joseph",103940,"Miorelli,Joseph",117603,"Mesa,Karina Almendral",010,010-Open,USA,FL,HRSHCTU
540992,PCH049,MGR,CAR00041,4/24/2017,010,4/24/2017,1,1,L,RCCHQ,0200580,RCI Purchasing - Admin.,RCI,MIRAMAR,"Mgr, Commodity",Backfill for Andres Valbuena,Y,,,,N,RPL,Standard Requisition,119080,"Valbuena,Andres Felipe",121536,"Clements,William R.",117603,"Mesa,Karina Almendral",010,010-Open,USA,FL,HRSHJV
541122,TGS004,DIR,00003323,5/4/2017,010,5/4/2017,1,1,L,RCCHQ,0200641,Guest Services,RCI,RC1050,"Dir, Hotel Operations-Royal",,Y,,,,N,RPL,Standard Requisition,122520,"Nentwich,Richard",110664,"Gschaider,Raimund H",125904,"Canida,Marissa P.",010,010-Open,USA,FL,HRSHMC
541172,FIN176,PROF,00007045,5/9/2017,010,4/27/2018,1,1,L,RCCHQ,0200565,RCI Corporate Planning,RCI,RC1050,"Analyst, Sr Corporate Planning",,Y,,,,N,RPL,Standard Requisition,122722,"Iglesia,Fernando Xavier",117813,"Jouver,Svetlana S",111708,"Dunn,Michelle",010,010-Open,USA,FL,HRSHMDU
541185,HRS300,DIR,00012138,5/11/2017,010,5/11/2017,1,1,L,RCCHQ,0200538,Training and Development,RCI,RC1050,"Dir., Talent Management",,Y,,,,N,RPL,Standard Requisition,126993,"Bruno,Jennifer",121173,"Zini,Hernan F",128818,"Tomazela,Virginia",010,010-Open,USA,FL,HRSHMDU
541231,DIG009,MGR,00013348,5/19/2017,010,4/27/2018,1,1,L,RCCHQ,0200554,Digital,RCI,RC1050,Product Manager,,Y,,,,N,NEW,Standard Requisition,100435,"Maschinot,Dorcas R",128367,"Besecker,Kurt",114996,"Dunlap,Judith E",010,010-Open,USA,FL,HRSHJD
541271,STS101,STS,TMP00350,5/23/2017,010,5/23/2017,1,1,L,CCCHQ,0500642,CCI - TGS F & B,CCI,CC1050,Shipt to Shore-short term assi,Ship To Shore Rafael Garcia,Y,,,,N,NEW,Standard Requisition,125696,"Taveras,Katherine Elizabeth",126642,"Becker,Josh M.",110785,"Montiel,Lyssett Lourdes",010,010-Open,USA,FL,HRSHJV
541372,INF099,MGR,00007379,6/2/2017,010,6/2/2017,1,1,L,RCCHQ,0200575,"IT-GBS-Sales, Mktg & Int'l",RCI,MIRAMAR,Manager,Backfill for Erick Krohn,Y,,,,N,RPL,Standard Requisition,120481,"Krohn,Erick",100256,"Guerra,Ana M",114996,"Dunlap,Judith E",010,010-Open,USA,FL,HRSHJV
541374,RES225,ICLER,00006598,6/5/2017,010,4/25/2018,1,1,L,CCCHQ,0500609,CEL Reserv/Key Accounts,CCI,WICHITA,"Rep, Cruise",Termination generated job requisition,Y,,,,N,RPL,Standard Requisition,128224,"Briceno,Stephanie V",126052,"Carter,Thomas A",115013,"Barnes,Lisa A",010,010-Open,USA,KS,HRSHLB
541382,INF244,MGR,00008971,6/6/2017,010,6/6/2017,1,1,L,RCCHQ,0200576,IT - Shipboard Tech & Ops,RCI,MIRAMAR,"Architect, Enterprise",,Y,,,,Y,RPL,Standard Requisition,102792,"Houser,Toby",109213,"Hurtado,John P",114996,"Dunlap,Judith E",010,010-Open,USA,CO,HRSHJD
541455,EXE163,EXEC,00013440,6/13/2017,010,4/27/2018,1,1,L,CCCHQ,0500691,Global Marine Tech Services,CCI,CC1080,"VP, Fleet Technical Support",Temp to Perm,Y,,,,N,NEW,Standard Requisition,105792,"Aasen,Anders E",119509,"Dahlgren,Patrik",110785,"Montiel,Lyssett Lourdes",010,010-Open,USA,FL,HRSHJV
541671,INF031,PROF,00012609,6/30/2017,010,6/30/2017,1,1,L,RCCHQ,0200510,IT Security & Compliance,RCI,MIRAMAR,"Analyst,Info Sec Unified Compl",,Y,,,,Y,RPL,Standard Requisition,125207,"Perez,Alberto A",126812,"Curran,Theresa",114996,"Dunlap,Judith E",010,010-Open,USA,FL,HRSHJD
541812,HRS055,PROF,00013521,7/17/2017,010,4/27/2018,1,1,L,RCCHQ,0200537,HR Total Rewards,RCI,RC1050,"Analyst, Sr Immigration & Relo",Approved by Paul Parker,Y,,,,N,NEW,Standard Requisition,113061,"Valdes-Pages,Alicia",102611,"Martin,Maria",111708,"Dunn,Michelle",010,010-Open,USA,FL,HRSHMDU
541830,TGS264,MGR,00000423,7/19/2017,010,7/19/2017,1,1,L,CCCHQ,0500641,Guest Services,CCI,CC1050,"Mgr, Hotel Ops - Celebrity",Backfill for Alex De Roeck,Y,,,,N,RPL,Standard Requisition,123033,"De Roeck,Alexander",122060,"O'Connor,Damien M",110785,"Montiel,Lyssett Lourdes",010,010-Open,USA,FL,HRSHJV
541839,STS101,STS,TMP00611,7/20/2017,010,7/20/2017,1,1,L,CCCHQ,0500642,CCI - TGS F & B,CCI,CC1050,Shipt to Shore-short term assi,Ship to Shore Temp Assignment,Y,,,,N,NEW,Standard Requisition,125696,"Taveras,Katherine Elizabeth",126642,"Becker,Josh M.",110785,"Montiel,Lyssett Lourdes",010,010-Open,USA,FL,HRSHJV
541872,TGS384,PROF,00000538,7/26/2017,010,7/26/2017,1,1,L,RCCHQ,0200650,Global Tour Operations,RCI,RC1050,"Analyst, Business - GTO",,Y,,,,N,RPL,Standard Requisition,102300,"Diaz,Lissette A",102300,"Diaz,Lissette A",125904,"Canida,Marissa P.",010,010-Open,USA,FL,HRSHMC
541897,GEN500,PROF,00012649,7/27/2017,010,4/27/2018,1,1,L,RCCHQ,0200500,RCI Executive Dept 500,RCI,RC1050,"Administrator, Sr. Executive","Replacing 	
Blake Coombs,Suzzette Heather",Y,,,,N,RPL,Standard Requisition,100435,"Maschinot,Dorcas R",100030,"Fain,Richard D",125630,"Colina,Jennifer Dawn",010,010-Open,USA,FL,HRSHKA
541917,DIG032,SUPV,00013554,8/1/2017,010,8/8/2017,1,1,L,RCCHQ,0200554,Digital,RCI,RC1050,"Technologist, Creative",,Y,,,,N,NEW,Standard Requisition,128963,"Caminero,Heidy Altagracia",128923,"Smith,John David",114996,"Dunlap,Judith E",010,010-Open,USA,FL,HRSHJD
541920,LEG041,PROF,00013550,8/1/2017,010,8/1/2017,1,1,L,RCCHQ,0200529,Compliance & Ethics,RCI,RC1050,"Spec, Global Compliance&Privac",New headcount 2017,Y,,,,N,NEW,Standard Requisition,128828,"Morrill,Taylor Armstrong",119706,"Benson,Karen",111708,"Dunn,Michelle",010,010-Open,USA,FL,HRSHJV
541948,TMP350,CLER,TMP00533,8/3/2017,010,8/3/2017,1,1,L,GEOHQ,17100664,"RCL GEO, LLC.",GEO,GE1050,Temp Position FT - Hourly,Temp Headcount under Maria Ruiz,Y,,,,N,NEW,Standard Requisition,128774,"Larson,Aline Costa",128313,"Ruiz,Maria Marta",111708,"Dunn,Michelle",010,010-Open,USA,FL,HRSHJV
541967,TMP350,CLER,TMP00522,8/8/2017,010,8/8/2017,1,1,L,RCCHQ,0200599,NB Technical Revitalization,RCI,NEWBUILD,Project Coordinator,,Y,,,,N,NEW,Standard Requisition,125608,"Mieres,Adriana Paola",109031,"Lewis,Eric",117603,"Mesa,Karina Almendral",010,010-Open,USA,FL,HRSHKA
541968,TMP300,PROF,TMP00524,8/8/2017,010,8/8/2017,1,1,L,RCCHQ,0200599,NB Technical Revitalization,RCI,RC1080,"Assistant Project Manager, Space Manager",,Y,,,,N,NEW,Standard Requisition,125608,"Mieres,Adriana Paola",109031,"Lewis,Eric",117603,"Mesa,Karina Almendral",010,010-Open,USA,FL,HRSHKA
541969,TMP300,PROF,TMP00523,8/8/2017,010,8/8/2017,1,1,L,RCCHQ,0200599,NB Technical Revitalization,RCI,RC1080,Project Manager,,Y,,,,N,NEW,Standard Requisition,125608,"Mieres,Adriana Paola",109031,"Lewis,Eric",117603,"Mesa,Karina Almendral",010,010-Open,USA,FL,HRSHKA
541970,TMP300,PROF,TMP00526,8/8/2017,010,8/8/2017,1,1,L,RCCHQ,0200599,NB Technical Revitalization,RCI,RC1080,Project Planner / Scheduler,,Y,,,,N,NEW,Standard Requisition,125608,"Mieres,Adriana Paola",109031,"Lewis,Eric",117603,"Mesa,Karina Almendral",010,010-Open,USA,FL,HRSHKA
541971,TMP300,PROF,TMP00525,8/8/2017,010,8/8/2017,1,1,L,RCCHQ,0200599,NB Technical Revitalization,RCI,RC1080,Technical Manager,,Y,,,,N,NEW,Standard Requisition,125608,"Mieres,Adriana Paola",109031,"Lewis,Eric",117603,"Mesa,Karina Almendral",010,010-Open,USA,FL,HRSHKA
542019,FIN005,SUPV,00010450,8/10/2017,010,4/27/2018,1,1,L,RCCHQ,0200551,Risk Management,RCI,RC1050,"Lead, Loss Prev Investigations",Transfer/Promotion generated job requisition,Y,,,,N,RPL,Standard Requisition,124885,"Espinosa-Lozano,Andres Felipe",120217,"Mujwit,Joseph W",117603,"Mesa,Karina Almendral",010,010-Open,USA,FL,HRSHKA
542156,RES819,ICLER,00011599,8/17/2017,010,4/24/2018,1,1,L,CCCHQ,0500612,CEL Customer Service,CCI,WICHITA,"Rep, OneTouch Support",Transfer/Promotion generated job requisition,Y,,,,N,RPL,Standard Requisition,128272,"Quarles,Vanessa",112068,"Maley,Mallory M",115013,"Barnes,Lisa A",010,010-Open,USA,KS,HRSHLB
542240,INF074,PROF,00013748,8/25/2017,010,8/25/2017,1,1,L,RCCHQ,0200554,Digital,RCI,MIRAMAR,"Analyst, AI Data Scientist",,Y,,,,Y,NEW,Standard Requisition,100605,"Donaldson,Kurt",129015,"Marrelli,Carl Michael",114996,"Dunlap,Judith E",010,010-Open,USA,FL,HRSHJD
542333,DIG036,DIR,00013794,9/4/2017,010,9/4/2017,1,1,L,RCCHQ,0200554,Digital,RCI,RC1050,"Dir, Digital Program Delivery",,Y,,,,Y,NEW,Standard Requisition,110820,"Vicente,Neena R",129164,"Middlebrook,Elizabeth",114996,"Dunlap,Judith E",010,010-Open,USA,FL,HRSHJD
542441,DIG037,MGR,00013885,9/18/2017,010,9/18/2017,1,1,L,RCCHQ,0200554,Digital,RCI,RC1080,"Mgr, Product Engineering",,Y,,,,Y,NEW,Standard Requisition,129276,"Kim,Eun Ha",129068,"Kolasinski,Brandon Dirk",114996,"Dunlap,Judith E",010,010-Open,USA,FL,HRSHJD
542574,DIG003,MGR,00013467,9/28/2017,010,9/28/2017,1,1,L,RCCHQ,0200554,Digital,RCI,RC1050,"Sr Mgr, Product",,Y,,,,N,NEW,Standard Requisition,128565,"Kimmel,Whitney P",121905,"Price,Aaron M.",114996,"Dunlap,Judith E",010,010-Open,USA,FL,HRSHJD
542578,MAR280,PROF,00011747,9/28/2017,010,9/28/2017,1,1,L,RCCHQ,0200523,NB Project Management,RCI,RC1080,"Spec, Newbuild",,Y,,,,N,NEW,Standard Requisition,110076,"Luna,Luz R",114328,"Lemus,Jaime",117603,"Mesa,Karina Almendral",010,010-Open,USA,FL,HRSHKA
542579,MAR116,PROF,00011936,9/28/2017,010,9/28/2017,1,1,L,RCCHQ,0200523,NB Project Management,RCI,RC1080,"Analyst, Newbuild Project",,Y,,,,N,NEW,Standard Requisition,110076,"Luna,Luz R",114328,"Lemus,Jaime",117603,"Mesa,Karina Almendral",010,010-Open,USA,FL,HRSHKA
542609,DIG039,MGR,00013936,9/29/2017,010,9/29/2017,1,1,L,RCCHQ,0200554,Digital,RCI,RC1050,"Sr Mgr, Product Engineering",,Y,,,,N,NEW,Standard Requisition,128420,"Major,Derek Andrew",129068,"Kolasinski,Brandon Dirk",114996,"Dunlap,Judith E",010,010-Open,USA,FL,HRSHJD
542614,TGS510,DIR,00003373,10/1/2017,010,10/1/2017,1,1,L,RCCHQ,0200642,Food & Beverage,RCI,RC1050,"Dir. F & B Ops, Culinary",,Y,,,,N,RPL,Standard Requisition,129368,"DSouza,Linken Nigel",129368,"DSouza,Linken Nigel",125904,"Canida,Marissa P.",010,010-Open,USA,FL,HRSHMC
542836,PCH224,PROF,CAR00033,10/16/2017,010,10/16/2017,1,1,L,RCCHQ,0200582,Purchasing - Newbuild 582,RCI,RC1080,"Analyst, Sr Logistics Project",Replacing Adam Goldstein,Y,,,,N,RPL,Standard Requisition,124263,"Goldstein,Adam Jay",105531,"Bouza,Laura",117603,"Mesa,Karina Almendral",010,010-Open,USA,FL,HRSHKA
542843,DIG040,PROF,00014031,10/17/2017,010,10/17/2017,1,1,L,RCCHQ,0200554,Digital,RCI,RC1080,"Sr Product Designer, UX",,Y,,,,Y,NEW,Standard Requisition,129161,"Clement,Gabrielle",128857,"Gronseth,Byron Anthony",114996,"Dunlap,Judith E",010,010-Open,USA,FL,HRSHJD
542844,DIG041,PROF,00014032,10/17/2017,010,10/17/2017,1,1,L,RCCHQ,0200554,Digital,RCI,RC1080,"Sr Product Designer, Research",,Y,,,,Y,NEW,Standard Requisition,129161,"Clement,Gabrielle",128857,"Gronseth,Byron Anthony",114996,"Dunlap,Judith E",010,010-Open,USA,FL,HRSHJD
542852,FIN042,SUPV,00014221,10/17/2017,010,10/17/2017,1,1,L,RCCHQ,0200503,Global Gov and Comm Relations,RCI,RC1050,"Lead, Shared Services Finance",Replacing Claudia,Y,,,,N,NEW,Standard Requisition,126616,"Espana,Claudia Eugenia",103557,"Escurra,Maria",117603,"Mesa,Karina Almendral",010,010-Open,USA,FL,HRSHKA
542905,TMP350,CLER,TMP00566,10/20/2017,010,10/20/2017,1,1,L,RCCHQ,0200584,RCI Purchasing - F & B,RCI,RC1050,Temp Position FT Hourly,,Y,,,,N,NEW,Standard Requisition,121333,"Garcia,Joseph D",100469,"Otero,Ineivys",117603,"Mesa,Karina Almendral",010,010-Open,USA,FL,HRSHKA
543043,FIN665,PROF,00003666,10/27/2017,010,4/27/2018,1,1,L,RCCHQ,0200551,Risk Management,RCI,RC1080,"Case Mgr, Crew Medical",Replacing Tere DeBrita,Y,,,,N,RPL,Standard Requisition,128787,"Garcia,Alexander",100518,"Knight,Lashawn L",117603,"Mesa,Karina Almendral",010,010-Open,USA,FL,HRSHKA
543075,ACC236,MGR,00003730,10/31/2017,010,4/27/2018,1,1,L,RCCHQ,0200565,RCI Corporate Planning,RCI,RC1050,"Mgr, Capital Planning",,Y,,,,N,RPL,Standard Requisition,117535,"Rice,Kevin John",127977,"Milota,Kevin Matthew",111708,"Dunn,Michelle",010,010-Open,USA,FL,HRSHMDU
543092,SLS806,ICLER,00010931,10/31/2017,010,11/1/2017,1,1,L,RCCHQ,0200706,Consumer Outreach Outbound Sal,RCI,OREGON,"Agent, CO Outbound RCI",,Y,,,,N,RPL,Standard Requisition,122490,"Neal,Garrett A",114446,"Barrocas,Ruth E.",126923,"Sanders,Hannah K.",010,010-Open,USA,OR,HRSHHS
543126,MAR340,SUPV,00014495,11/3/2017,010,11/3/2017,1,1,L,RCCHQ,0200599,NB Technical Revitalization,RCI,RC1080,"Lead, Master Planner Estimator",,Y,,,,N,NEW,Standard Requisition,129375,"Spicer,Shelby Ann",109031,"Lewis,Eric",117603,"Mesa,Karina Almendral",010,010-Open,USA,FL,HRSHKA
543127,MAR337,SUPV,00014496,11/3/2017,010,11/3/2017,1,1,L,RCCHQ,0200599,NB Technical Revitalization,RCI,RC1080,"Lead, Projects",,Y,,,,N,NEW,Standard Requisition,129375,"Spicer,Shelby Ann",103940,"Miorelli,Joseph",117603,"Mesa,Karina Almendral",010,010-Open,USA,FL,HRSHKA
543129,MAR339,MGR,00014498,11/3/2017,010,11/3/2017,1,1,L,RCCHQ,0200599,NB Technical Revitalization,RCI,RC1080,"Mgr, Electrical Automation",,Y,,,,N,NEW,Standard Requisition,129375,"Spicer,Shelby Ann",103940,"Miorelli,Joseph",117603,"Mesa,Karina Almendral",010,010-Open,USA,FL,HRSHKA
543213,INF291,PROF,00003387,11/8/2017,010,6/6/2018,1,1,L,RCCHQ,0200573,IT-Operations & Technology,RCI,MIRAMAR,Engineer,Termination generated job requisition,Y,,,,N,RPL,Standard Requisition,100710,"Lee,Lawrence A",100108,"Mendoza,Felipe",114996,"Dunlap,Judith E",010,010-Open,USA,FL,HRSHJD
543218,INF264,DIR,00014517,11/8/2017,010,11/8/2017,1,1,L,RCCHQ,0200572,IT-Finance & Programs Adm,RCI,MIRAMAR,"AVP, Enterprise Architecture",,Y,,,,N,NEW,Standard Requisition,109213,"Hurtado,John P",100031,"Goldstein,Adam M.",114996,"Dunlap,Judith E",010,010-Open,USA,FL,HRSHJD
543220,INF268,DIR,00014518,11/8/2017,010,11/8/2017,1,1,L,RCCHQ,0200577,IT Tech Infra & Engineering,RCI,MIRAMAR,"Dir, IT Platforms",,Y,,,,Y,NEW,Standard Requisition,110251,"Boyer,William K",109213,"Hurtado,John P",114996,"Dunlap,Judith E",010,010-Open,USA,FL,HRSHJD
543233,INF267,SUPV,00014519,11/9/2017,010,11/9/2017,1,1,L,RCCHQ,0200554,Digital,RCI,MIRAMAR,"Architect, Technical Data",,Y,,,,N,NEW,Standard Requisition,100037,"Thorman Jr,Keith E",128587,"Wood,Brian Scott",114996,"Dunlap,Judith E",010,010-Open,USA,FL,HRSHJD
543245,MAR029,DIR,00000105,11/10/2017,010,4/27/2018,1,1,L,CCCHQ,0500687,Marine CEL 687,CCI,CC1050,"AVP,  Naut Ops & Fleet Capts",Replace Zissis Koskinas,Y,,,,N,RPL,Standard Requisition,107332,"Koskinas,Zissis",119509,"Dahlgren,Patrik",110785,"Montiel,Lyssett Lourdes",010,010-Open,USA,FL,HRSHLML
543269,MAR076,PROF,00011651,11/16/2017,010,4/27/2018,1,1,L,RCCHQ,0200523,NB Project Management,RCI,RC1080,"Analyst, Sr. Program",Replacing Ricky Robinson,Y,,,,N,RPL,Standard Requisition,125405,"Quallo,Ingrid",122038,"Gutman,Jason S.",117603,"Mesa,Karina Almendral",010,010-Open,USA,FL,HRSHKA
543274,MAR144,MGR,00014539,2/1/2018,010,11/16/2017,1,1,L,RCCHQ,0200595,Maritime Safety,RCI,RC1050,"Mgr, Maritime Safety",,Y,,,,N,NEW,Standard Requisition,129241,"Gunther,Nicholas Peter",119923,"Van Welter,Clayton Mathew",128818,"Tomazela,Virginia",010,010-Open,USA,FL,HRSHVG
543277,TTK024,CLER,00014540,11/16/2017,010,11/16/2017,1,1,L,GEOHQ,17100664,"RCL GEO, LLC.",GEO,BRICKELL,"Spec, Customer Service PT",,Y,,,,N,NEW,Standard Requisition,126166,"Senatus Caprice,Phelicia",100976,"Skrukrud,JoAnne Marie",111708,"Dunn,Michelle",010,010-Open,USA,FL,HRSHVG
543340,DIG039,MGR,00014584,11/20/2017,010,11/20/2017,1,1,L,RCCHQ,0200554,Digital,RCI,RC1080,"Sr Mgr, Product Engineering",,Y,,,,Y,NEW,Standard Requisition,128420,"Major,Derek Andrew",129068,"Kolasinski,Brandon Dirk",114996,"Dunlap,Judith E",010,010-Open,USA,FL,HRSHJD
543341,DIG039,MGR,00014585,11/20/2017,010,11/20/2017,1,1,L,RCCHQ,0200554,Digital,RCI,RC1080,"Sr Mgr, Product Engineering",,Y,,,,Y,NEW,Standard Requisition,128420,"Major,Derek Andrew",129068,"Kolasinski,Brandon Dirk",114996,"Dunlap,Judith E",010,010-Open,USA,FL,HRSHJD
543342,DIG037,MGR,00014586,11/20/2017,010,11/21/2017,1,1,L,RCCHQ,0200554,Digital,RCI,RC1080,"Mgr, Product Engineering",,Y,,,,Y,NEW,Standard Requisition,106514,"Carozzi,Mario E",129068,"Kolasinski,Brandon Dirk",114996,"Dunlap,Judith E",010,010-Open,USA,FL,HRSHJD
543435,LEG037,SUPV,00014623,11/28/2017,010,11/28/2017,1,1,L,RCCHQ,0200530,RCI Legal 530,RCI,RC1080,"Mgr, Contracts",,Y,,,,N,NEW,Standard Requisition,100699,"Munoz,Carmen R",101410,"Thomas,William M",111708,"Dunn,Michelle",010,010-Open,USA,FL,HRSHVG
543488,DIG048,MGR,00014635,12/1/2017,010,12/1/2017,1,1,L,RCCHQ,0200554,Digital,RCI,RC1080,"Sr Mgr, MobileApp Release Plan",,Y,,,,Y,NEW,Standard Requisition,128420,"Major,Derek Andrew",129164,"Middlebrook,Elizabeth",114996,"Dunlap,Judith E",010,010-Open,USA,FL,HRSHJD
543489,RES607,ICLER,00014637,12/1/2017,010,4/27/2018,1,1,L,RCCHQ,0200666,Correspondence,RCI,MIRAMARTSS,"Advocate,Post Gst Rel Exec Esc",New position part of 2018 plan. Approved.,Y,,,,N,NEW,Standard Requisition,114200,"Frau,Nelson",113743,"Morales,Daisy",117301,"Otonicar,Barbara K",010,010-Open,USA,FL,HRSHJDL
543512,SLS314,ICLER,00012660,12/4/2017,010,12/4/2017,1,1,L,RCCHQ,0200713,Certified Vacation Planning,RCI,OREGON,"Team Lead, CO Inbound RCI",,Y,,,,N,RPL,Standard Requisition,125994,"Osborn,Lora",128788,"Williams,Ronald",117972,"Thies,Cynthia T",010,010-Open,USA,OR,HRSHLH
543569,LEG032,PROF,00009031,12/7/2017,010,12/7/2017,1,1,L,RCCHQ,0200529,Compliance & Ethics,RCI,RC1050,"Spec, Glb Compliance & Privacy",,Y,,,,N,RPL,Standard Requisition,127978,"Diaz,George Mitchell",119706,"Benson,Karen",111708,"Dunn,Michelle",010,010-Open,USA,FL,HRSHMDU
543598,MAR002,DIR,00003808,12/12/2017,010,12/12/2017,1,1,L,RCCHQ,0200599,NB Technical Revitalization,RCI,RC1080,"Dir, Fleet Modernization",,Y,,,,N,RPL,Standard Requisition,109031,"Lewis,Eric",103940,"Miorelli,Joseph",117603,"Mesa,Karina Almendral",010,010-Open,USA,FL,HRSHKA
543602,TGS430,PROF,00000210,12/13/2017,010,6/19/2018,1,1,L,RCCHQ,0200650,Global Tour Operations,RCI,RC1050,"Analyst, Sr Financial GTO",,Y,,,,N,RPL,Standard Requisition,102300,"Diaz,Lissette A",102300,"Diaz,Lissette A",125904,"Canida,Marissa P.",010,010-Open,USA,FL,HRSHPR
543667,RES111,ICLER,00008797,12/15/2017,010,5/31/2018,1,1,L,RCCHQ,0200610,RES/Key,RCI,OREGON,"Rep, Correspondence",Termination generated job requisition,Y,,,,N,RPL,Standard Requisition,124939,"Edwards,Hannah M",111968,"Baquero,Ana M",110594,"Sturgeon,Amanda E",010,010-Open,USA,OR,HRSHLH
543694,REV235,PROF,00014708,12/19/2017,010,12/19/2017,1,1,L,RCCHQ,0200761,RCI Revenue Management 761,RCI,RC1080,"Analyst,Sr Revenue Management",,Y,,,,N,NEW,Standard Requisition,126415,"Rozich,Marissa Leigh",113662,"Vela,Mabel",125904,"Canida,Marissa P.",010,010-Open,USA,FL,HRSHMC
543740,FIN362,SUPV,00014741,12/26/2017,010,12/26/2017,1,1,L,RCCHQ,0200569,Corporate Development,RCI,RC1050,"Lead, Corporate Strategy Proj",Approved by Jason. We have two openings (Mgr and Lead) we will only fill one position,Y,,,,N,RPL,Standard Requisition,122077,"Wassmann,Juergen C.",121172,"Hennessy,Cailyn A.",111708,"Dunn,Michelle",010,010-Open,USA,FL,HRSHMDU
543745,DIG008,PROF,00014734,12/27/2017,010,12/27/2017,1,1,L,RCCHQ,0200554,Digital,RCI,RC1080,"Analyst, Sr. BI & Analytics",,Y,,,,N,NEW,Standard Requisition,129161,"Clement,Gabrielle",129374,"Pusch,Allan Johann",114996,"Dunlap,Judith E",010,010-Open,USA,FL,HRSHJD
543758,DIG038,SUPV,00014748,12/28/2017,010,12/28/2017,1,1,L,RCCHQ,0200554,Digital,RCI,RC1080,"Lead, Product Designer",,Y,,,,Y,NEW,Standard Requisition,126487,"Robinson,Ricky L.",128857,"Gronseth,Byron Anthony",114996,"Dunlap,Judith E",010,010-Open,USA,FL,HRSHJD
543763,DIG062,MGR,00014752,12/28/2017,010,12/28/2017,1,1,L,RCCHQ,0200554,Digital,RCI,RC1080,"Mgr, User Exp Design",,Y,,,,Y,NEW,Standard Requisition,129276,"Kim,Eun Ha",128857,"Gronseth,Byron Anthony",114996,"Dunlap,Judith E",010,010-Open,USA,FL,HRSHJD
543921,SLS271,ICLER,00014037,1/12/2018,010,4/27/2018,1,1,L,RCCHQ,0200775,Club Royal,RCI,OREGON,"Agent, Club Royal",,Y,,,,N,RPL,Standard Requisition,125998,"Williams,Tucker McGil",113607,"Norquist,Ronda J",117972,"Thies,Cynthia T",010,010-Open,USA,OR,HRSHLH
543923,HRS186,SUPV,00014797,1/12/2018,010,1/12/2018,1,1,L,RCCHQ,0200554,Digital,RCI,RC1050,"Lead, Enterprise Transform",,Y,,,,Y,NEW,Standard Requisition,129169,"Stadelmann,Jessica Maria",123033,"De Roeck,Alexander",114996,"Dunlap,Judith E",010,010-Open,USA,FL,HRSHJD
543934,SLS271,ICLER,00008793,1/15/2018,010,2/16/2018,1,1,L,RCCHQ,0200775,Club Royal,RCI,OREGON,"Agent, Club Royal",Transfer/Promotion generated job requisition,Y,,,,N,RPL,Standard Requisition,125998,"Williams,Tucker McGil",111955,"De Anda,Patricia",117972,"Thies,Cynthia T",010,010-Open,USA,OR,HRSHLH
543957,DIG003,MGR,00014809,1/17/2018,010,1/19/2018,1,1,L,RCCHQ,0200554,Digital,RCI,RC1050,"Sr Mgr, Product",,Y,,,,N,NEW,Standard Requisition,122943,"Samson,Michelle G.",121905,"Price,Aaron M.",114996,"Dunlap,Judith E",010,010-Open,USA,FL,HRSHVG
543985,TGS433,PROF,00014820,1/19/2018,010,5/11/2018,1,1,L,RCCHQ,0200641,Guest Services,RCI,RC1050,"Spec, Guest Services Operation",,Y,,,,N,NEW,Standard Requisition,113842,"Mattsson,Maria",113842,"Mattsson,Maria",125904,"Canida,Marissa P.",010,010-Open,USA,FL,HRSHPR
543988,SLS806,ICLER,00014564,1/19/2018,010,1/19/2018,1,1,L,RCCHQ,0200706,Consumer Outreach Outbound Sal,RCI,OREGON,"Agent, CO Outbound RCI",,Y,,,,N,RPL,Standard Requisition,129725,"Westheimer,Monique",114446,"Barrocas,Ruth E.",117972,"Thies,Cynthia T",010,010-Open,USA,OR,HRSHLH
543995,DIG070,PROF,00014825,1/22/2018,010,1/22/2018,1,1,L,RCCHQ,0200554,Digital,RCI,RC1050,"Developer, Sr Knowledge Graph",,Y,,,,Y,NEW,Standard Requisition,129161,"Clement,Gabrielle",129015,"Marrelli,Carl Michael",114996,"Dunlap,Judith E",010,010-Open,USA,FL,HRSHJD
543996,DIG070,PROF,00014826,1/22/2018,010,1/22/2018,1,1,L,RCCHQ,0200554,Digital,RCI,RC1050,"Developer, Sr Knowledge Graph",,Y,,,,Y,NEW,Standard Requisition,129161,"Clement,Gabrielle",129015,"Marrelli,Carl Michael",114996,"Dunlap,Judith E",010,010-Open,USA,FL,HRSHJD
544030,TOU595,CLER,00002579,1/25/2018,010,4/27/2018,1,1,L,RCCHQ,0200620,GTS Operation,RCI,RC1080,"Agent, FT Air Sea",replacing jabari,Y,,,,N,RPL,Standard Requisition,124527,"Johnson,Jabari Simeon",102055,"Wong,Janet M",117603,"Mesa,Karina Almendral",010,010-Open,USA,FL,HRSHKA
544031,INF221,PROF,00002764,1/25/2018,010,1/25/2018,1,1,L,RCCHQ,0200576,IT - Shipboard Tech & Ops,RCI,MIRAMAR,"Analyst, Sr",,Y,,,,Y,RPL,Standard Requisition,115547,"Sayler,Jaylene",106376,"Gonzalez,Luis A",114996,"Dunlap,Judith E",010,010-Open,USA,FL,HRSHJD
544033,DIG065,PROF,00014844,1/25/2018,010,1/25/2018,1,1,L,RCCHQ,0200554,Digital,RCI,RC1050,"Analyst, Sr Data Personal",,Y,,,,N,NEW,Standard Requisition,129736,"Lieber,Alex Howard",129015,"Marrelli,Carl Michael",114996,"Dunlap,Judith E",010,010-Open,USA,FL,HRSHVG
544078,FIN127,PROF,00002821,1/31/2018,010,4/27/2018,1,1,L,RCCHQ,0200594,Newbuilding Executive & Financ,RCI,RC1080,"Analyst, Sr Financial Newbuild G&A",,Y,,,,N,RPL,Standard Requisition,121552,"Miller,Donya N.",112447,"Lopez,Juan A",117603,"Mesa,Karina Almendral",010,010-Open,USA,FL,HRSHKA
544094,REV220,PROF,00002876,1/31/2018,010,1/31/2018,1,1,L,RCCHQ,0200553,Revenue Planning & Analysis,RCI,RC1080,"Analyst, Sr. RM Tech Develop",Backfill for approved position.,Y,,,,N,RPL,Standard Requisition,122518,"Salomon,Irmina T.",112959,"Toro,Rafael",111708,"Dunn,Michelle",010,010-Open,USA,FL,HRSHJDL
544120,COM011,DIR,00003704,2/6/2018,010,2/6/2018,1,1,L,RCCHQ,0200505,Corporate Communications,RCI,RC1050,"Dir, Corporate Reputation",,Y,,,,N,RPL,Standard Requisition,108363,"OConnell,Helen P",121969,"Zeiger Jr,Robert R.",117603,"Mesa,Karina Almendral",010,010-Open,USA,FL,HRSHKA
544153,TGS418,MGR,00014898,2/8/2018,010,2/8/2018,1,1,L,RCCHQ,0200640,Hotel Operations,RCI,RC1050,"Mgr, Private Dest Investments",,Y,,,,N,NEW,Standard Requisition,103044,"Boink Jr,James N",103044,"Boink Jr,James N",125904,"Canida,Marissa P.",010,010-Open,USA,FL,HRSHPR
544166,INF346,PROF,00002631,2/9/2018,010,4/27/2018,1,1,L,RCCHQ,0200577,IT Tech Infra & Engineering,RCI,MIRAMAR,Analyst,Transfer/Promotion generated job requisition,Y,,,,N,RPL,Standard Requisition,106992,"Seiplax,Frank A",100159,"Eubanks,Charlie H",114996,"Dunlap,Judith E",010,010-Open,USA,FL,HRSHJD
544168,RES814,CLER,00010307,2/9/2018,010,6/11/2018,1,1,L,RCCHQ,0200625,Groups/STAR,RCI,OREGON,"Coord, Resolutions Project",Transfer/Promotion generated job requisition,Y,,,,N,RPL,Standard Requisition,119725,"Smith,Jason L.",112027,"Truax,Gayle E",110594,"Sturgeon,Amanda E",010,010-Open,USA,OR,HRSHLH
544174,PLN009,PROF,00014918,2/12/2018,010,2/12/2018,1,1,L,RCCHQ,0200533,Commercial Development,RCI,RC1050,"Analyst, Asset Management",,Y,,,,N,NEW,Standard Requisition,125205,"Iglesias,Cristina M",104666,"Reyna,Miguel",125904,"Canida,Marissa P.",010,010-Open,USA,FL,HRSHKA
544179,FIN173,PROF,00011688,2/12/2018,010,2/12/2018,1,1,L,RCCHQ,0200565,RCI Corporate Planning,RCI,RC1050,"Analyst, Sr Essbase &Financial",,Y,,,,N,RPL,Standard Requisition,114705,"Maisonnave,Maria Gabriela",117813,"Jouver,Svetlana S",111708,"Dunn,Michelle",010,010-Open,USA,FL,HRSHVG
544227,RES802,PROF,00005348,3/12/2018,010,4/27/2018,1,1,L,RCCHQ,0200607,Training Q/A,RCI,OREGON,"Spec, Contact Center Training",,Y,,,,N,RPL,Standard Requisition,118337,"Stanford,Samantha J",101995,"Marmolejo-Perez,Jessica",117972,"Thies,Cynthia T",010,010-Open,USA,OR,HRSHLH
544261,RES820,ICLER,00010970,2/14/2018,010,2/14/2018,1,1,L,RCCHQ,0200625,Groups/STAR,RCI,OREGON,"Advocate, Sr Star Royal",,Y,,,,N,RPL,Standard Requisition,111813,"Baumer,Kari J",105912,"Swearengin,Ryan",117972,"Thies,Cynthia T",010,010-Open,USA,OR,HRSHLH
544267,TOU301,PROF,00005396,2/15/2018,010,2/15/2018,1,1,L,RCCHQ,0200615,Guest Travel Services,RCI,RC1080,"Analyst, Guest Travel Services",,Y,,,,N,RPL,Standard Requisition,126651,"Krtausch,Chelsea Morgan",126289,"Sullivan Jr,John Ralph",117603,"Mesa,Karina Almendral",010,010-Open,USA,FL,HRSHKA
544274,MAR203,SUPV,00000357,2/16/2018,010,2/16/2018,1,1,L,RCCHQ,0200684,Accommodations & Refurbishment,RCI,RC1050,"Lead, Accommodations Maint",,Y,,,,N,RPL,Standard Requisition,107276,"Dixon,Adriana",112620,"Blair,Karen",110785,"Montiel,Lyssett Lourdes",010,010-Open,USA,FL,HRSHVG
544296,FIN356,PROF,00014975,2/20/2018,010,2/20/2018,1,1,L,RCCHQ,0200564,RCI Finance,RCI,RC1050,"Analyst, Sr Financial",,Y,,,,N,NEW,Standard Requisition,114118,"Carrillo,Veronika",114118,"Carrillo,Veronika",125904,"Canida,Marissa P.",010,010-Open,USA,FL,HRSHMC
544338,MAR203,SUPV,00000357,2/23/2018,010,2/23/2018,1,1,L,RCCHQ,0200684,Accommodations & Refurbishment,RCI,RC1050,"Lead, Accommodations Maint",,Y,,,,N,RPL,Standard Requisition,107276,"Dixon,Adriana",112620,"Blair,Karen",122192,"Del Llano,Janelle M.",010,010-Open,USA,FL,HRSHVG
544342,SLS786,CLER,00012618,2/23/2018,010,3/5/2018,1,1,L,RCCHQ,0200708,708 CVP Service,RCI,OREGON,"Spec, CO Resolution",Transfer/Promotion generated job requisition,Y,,,,N,RPL,Standard Requisition,123576,"Bearden,Whitley R",121463,"Brockmann,Alexander R",117972,"Thies,Cynthia T",010,010-Open,USA,OR,HRSHLH
544355,TMP300,PROF,TMP00598,2/26/2018,010,2/26/2018,1,1,L,RCCHQ,0200554,Digital,RCI,RC1050,Temp Position FT EX,,Y,,,,N,NEW,Standard Requisition,129516,"Woods,James Pardee",129147,"Reilly,Mary Portia",114996,"Dunlap,Judith E",010,010-Open,USA,FL,HRSHJD
544361,TMP350,CLER,TMP00599,2/27/2018,010,2/27/2018,1,1,L,RCCHQ,0200682,Onboard Sales,RCI,RC1050,Temp Position FT Hourly,,Y,,,,N,RPL,Standard Requisition,121904,"Halcomb,Jayne A.",121904,"Halcomb,Jayne A.",125904,"Canida,Marissa P.",010,010-Open,USA,TX,HRSHPR
544395,GEN350,CLER,00004937,3/2/2018,010,4/27/2018,1,1,L,RCCHQ,0200550,RCI Accounting,RCI,RC1050,"Administrator, Executive",,Y,,,,N,NEW,Standard Requisition,106726,"Caldera,Telma Gia",108678,"Pujol III,Henry Louis",111708,"Dunn,Michelle",010,010-Open,USA,FL,HRSHVG
544399,HRS347,MGR,00004449,3/2/2018,010,3/2/2018,1,1,L,RCCHQ,0200539,RCI HR Shipboard,RCI,RC1050,"Mgr, Employee Adminstration",,Y,,,,N,RPL,Standard Requisition,103161,"Faroun,Zizi F",112307,"Budden,Darren",128818,"Tomazela,Virginia",010,010-Open,USA,FL,HRSHVG
544400,RES534,ICLER,00003253,3/2/2018,010,3/2/2018,1,1,L,RCCHQ,0200625,Groups/STAR,RCI,OREGON,"Coord, Shipboard Event",,Y,,,,N,RPL,Standard Requisition,119845,"Alvarez,Maida",111015,"Keough,Kelsey L",117972,"Thies,Cynthia T",010,010-Open,USA,FL,HRSHLH
544401,RES534,ICLER,00003253,3/2/2018,010,3/2/2018,1,1,L,RCCHQ,0200625,Groups/STAR,RCI,MIRAMAR,"Coord, Shipboard Event",,Y,,,,N,RPL,Standard Requisition,119845,"Alvarez,Maida",101064,"Perez,Julissa A",117972,"Thies,Cynthia T",010,010-Open,USA,FL,HRSHLH
544412,DIG088,DIR,00015011,3/6/2018,010,3/6/2018,1,1,L,RCCHQ,0200554,Digital,RCI,RC1050,"Dir, Research Innovation",,Y,,,,N,NEW,Standard Requisition,128923,"Smith,John David",128365,"Hasty,Joseph",114996,"Dunlap,Judith E",010,010-Open,USA,FL,HRSHJD
544433,INF084,MGR,00003761,3/8/2018,010,3/8/2018,1,1,L,RCCHQ,0200576,IT - Shipboard Tech & Ops,RCI,MIRAMAR,"Mgr, IT",,Y,,,,N,RPL,Standard Requisition,100256,"Guerra,Ana M",100206,"Sinclair,Mark",114996,"Dunlap,Judith E",010,010-Open,USA,FL,HRSHJD
544453,HRS399,MGR,00014941,3/9/2018,010,3/9/2018,1,1,L,RCCHQ,0200538,Training and Development,RCI,RC1050,"Mgr, School Strat & Recruit",,Y,,,,N,RPL,Standard Requisition,103161,"Faroun,Zizi F",121173,"Zini,Hernan F",128818,"Tomazela,Virginia",010,010-Open,USA,FL,HRSHVG
544486,RES802,PROF,00005348,3/12/2018,010,4/27/2018,1,1,L,RCCHQ,0200607,Training Q/A,RCI,OREGON,"Spec, Contact Center Training",,Y,,,,N,RPL,Standard Requisition,118337,"Stanford,Samantha J",101995,"Marmolejo-Perez,Jessica",117972,"Thies,Cynthia T",010,010-Open,USA,OR,HRSHLH
544499,MKT439,PROF,00015059,3/13/2018,010,3/13/2018,1,1,L,RCCHQ,0200757,Mktg.One to One Communications,RCI,RC1080,"Sr AE, Prod Dvlpmt FleetModern",,Y,,,,N,NEW,Standard Requisition,127552,"Comparini,Renata F",129501,"Kenney,Amanda Faye",125904,"Canida,Marissa P.",010,010-Open,USA,FL,HRSHMC
544501,SLS804,ICLER,00015019,3/13/2018,010,3/13/2018,1,1,L,RCCHQ,0200713,Certified Vacation Planning,RCI,OREGON,"Agent, CO Inbound RCI",,Y,,,,N,RPL,Standard Requisition,129410,"Cruson,Stephen",110470,"Alexander,Tomissa K",117972,"Thies,Cynthia T",010,010-Open,USA,OR,HRSHLH
544508,INF275,PROF,00015063,3/13/2018,010,3/21/2018,1,1,L,RCCHQ,0200574,"IT-GBS-Rev/AirSea, Call Center",RCI,RC1050,"Spec, IT BRM",taking Catherine Beliveau and Olen's vacancy to utilize for this role,Y,,,,Y,RPL,Standard Requisition,118744,"Brown,Mellesha N",123916,"Caulfield,Cecille Isabel",114996,"Dunlap,Judith E",010,010-Open,USA,FL,HRSHJD
544513,RES273,ICLER,00007956,3/14/2018,010,7/24/2018,1,1,L,CCCHQ,0500609,CEL Reserv/Key Accounts,CCI,WICHITA,"Rep, Cruise Enhancements",Termination generated job requisition,Y,,,,N,RPL,Standard Requisition,129203,"Callison,Amanda Lynn",106832,"Thach,Rosalie D",115013,"Barnes,Lisa A",010,010-Open,USA,KS,HRSHLB
544517,MAR411,PROF,00015065,3/14/2018,010,3/14/2018,1,1,L,RCCHQ,0200598,Energy Management,RCI,RC1050,"Analyst, Sr Fleet Energy Opt",,Y,,,,N,NEW,Standard Requisition,126685,"Kennedy,Rory",112316,"Oinas,Jari P.",122192,"Del Llano,Janelle M.",010,010-Open,USA,FL,HRSHVG
544538,SEC004,PROF,00002717,3/19/2018,010,3/19/2018,1,1,L,RCCHQ,0200593,Global Security,RCI,RC1050,"Analyst, Security Planning",,Y,,,,N,RPL,Standard Requisition,116008,"Sweeney,Patricia M",112956,"Hernandez,Lillian L",128818,"Tomazela,Virginia",010,010-Open,USA,FL,HRSHPE
544547,TGS394,SUPV,CAR00060,3/19/2018,010,3/19/2018,1,1,L,RCCHQ,0200642,Food & Beverage,RCI,RC1050,"Lead, NB Modern&SpecialProject",,Y,,,,N,NEW,Standard Requisition,113978,"Soderholm,Seidy M",130341,"Fortin,Paul Albert",125904,"Canida,Marissa P.",010,010-Open,USA,FL,HRSHPR
544574,PPG057,SUPV,00015080,3/20/2018,010,3/20/2018,1,1,L,RCCHQ,0200627,Port Services,RCI,RC1080,"Lead, Port Services",,Y,,,,N,NEW,Standard Requisition,125908,"Kennings,LeVar O.",109504,"Nason,Dustin C",117603,"Mesa,Karina Almendral",010,010-Open,USA,FL,HRSHPE
544618,DIG090,PROF,00015087,3/22/2018,010,3/22/2018,1,1,L,RCCHQ,0200554,Digital,RCI,RC1080,"Analyst, Sr Business Solutions",,Y,,,,N,NEW,Standard Requisition,125670,"Diaz,Bree",125670,"Diaz,Bree",114996,"Dunlap,Judith E",010,010-Open,USA,FL,HRSHPE
544619,DIG091,PROF,00015088,3/22/2018,010,3/22/2018,1,1,L,RCCHQ,0200554,Digital,RCI,RC1080,"Analyst, Bus Solutions,Data",,Y,,,,N,NEW,Standard Requisition,125670,"Diaz,Bree",125670,"Diaz,Bree",114996,"Dunlap,Judith E",010,010-Open,USA,FL,HRSHPE
544621,INF401,PROF,00015093,3/22/2018,010,3/22/2018,1,1,L,RCCHQ,0200572,IT-Finance & Programs Adm,RCI,MIRAMAR,"Analyst, Sr Capital Projects",,Y,,,,N,NEW,Standard Requisition,126616,"Espana,Claudia Eugenia",128276,"Swanson,Sean M.",114996,"Dunlap,Judith E",010,010-Open,USA,FL,HRSHPE
544677,RES207,ICLER,00005288,3/29/2018,010,3/29/2018,1,1,L,RCCHQ,0200610,RES/Key,RCI,OREGON,"Spec, Reservations Resolution",Backfill for bulk position. Blanket approval.,Y,,,,N,RPL,Standard Requisition,125634,"Allworth,Robert",116547,"Glavin,Teresa A",126923,"Sanders,Hannah K.",010,010-Open,USA,OR,HRSHJDL
544699,PLN005,MGR,00003673,3/29/2018,010,3/29/2018,1,1,L,RCCHQ,0200533,Commercial Development,RCI,RC1050,"Sr Mgr, Port Bus Dev&Asset Mgm",,Y,,,,N,RPL,Standard Requisition,125205,"Iglesias,Cristina M",104666,"Reyna,Miguel",125904,"Canida,Marissa P.",010,010-Open,USA,FL,HRSHKA
544712,MAR239,PROF,00012419,4/2/2018,010,4/2/2018,1,1,L,RCCHQ,0200519,NB Project Design,RCI,RC1080,"Assoc II, Architectural Design",,Y,,,,N,NEW,Standard Requisition,110952,"Calleiro,Analise",111665,"Stratton,Diane C",117603,"Mesa,Karina Almendral",010,010-Open,USA,FL,HRSHKA
544718,MAR119,SUPV,00011567,4/3/2018,010,4/3/2018,1,1,L,RCCHQ,0200519,NB Project Design,RCI,RC1080,"Sr.Assoc, Architectural Design",,Y,,,,N,RPL,Standard Requisition,110952,"Calleiro,Analise",111665,"Stratton,Diane C",117603,"Mesa,Karina Almendral",010,010-Open,USA,FL,HRSHPE
544751,INF955,PROF,00015206,4/6/2018,010,4/6/2018,1,1,L,RCCHQ,0200571,IT Software Engineering,RCI,MIRAMAR,Senior Engineer,replacement for Raja Unnam who took position to Digital,Y,,,,N,RPL,Standard Requisition,100875,"Andrew,Lisa K",106599,"Demetriou,Nicholas",114996,"Dunlap,Judith E",010,010-Open,USA,WA,HRSHJD
544762,AZA002,DIR,00000100,4/9/2018,010,4/9/2018,1,1,L,AZAHQ,0400710,710 AZA VP Sales,AZA,AZ1050,"Dir, Field Sales- East Coast",,Y,,,,N,RPL,Standard Requisition,120537,"Grutzner,Jonathan H",102766,"Cabezas,Carol E",111708,"Dunn,Michelle",010,010-Open,USA,WI,HRSHMDU
544770,TGS199,PROF,00012878,4/9/2018,010,6/12/2018,1,1,L,RCCHQ,0200630,Onboard Revenue Operations,RCI,RC1050,"Analyst, Sr. Onboard Revenue",,Y,,,,N,RPL,Standard Requisition,106483,"Romine,Amanda",106483,"Romine,Amanda",125904,"Canida,Marissa P.",010,010-Open,USA,FL,HRSHMC
544777,SLS314,ICLER,00010926,4/9/2018,010,4/20/2018,1,1,L,RCCHQ,0200713,Certified Vacation Planning,RCI,OREGON,"Team Lead, CO Inbound RCI",,Y,,,,N,RPL,Standard Requisition,110394,"Coon,Frances E",110470,"Alexander,Tomissa K",126923,"Sanders,Hannah K.",010,010-Open,USA,OR,HRSHHS
544783,TGS398,PROF,00015232,4/10/2018,010,4/10/2018,1,1,L,RCCHQ,0200633,Ops - GTO,RCI,RC1050,"Analyst, Sr RevMgmt PerfectDay",,Y,,,,N,NEW,Standard Requisition,127800,"Ximenes,Alexandre",127800,"Ximenes,Alexandre",125904,"Canida,Marissa P.",010,010-Open,USA,FL,HRSHPR
544785,LEG050,DIR,00003360,4/10/2018,010,4/10/2018,1,1,L,RCCHQ,0200530,RCI Legal 530,RCI,RC1050,"Dir, Assoc Counsel Marketing",,Y,,,,N,RPL,Standard Requisition,101410,"Thomas,William M",112626,"Kabot,Eric",111708,"Dunn,Michelle",010,010-Open,USA,AL,HRSHPE
544873,FIN600,SUPV,00010449,4/12/2018,010,4/12/2018,1,1,L,RCCHQ,0200557,Medical and Public Health,RCI,RC1080,"Lead, Med Svcs Advsr&Occu Hlth",,Y,,,,N,NEW,Standard Requisition,111763,"Acevedo,Fabio",126620,"Parejo,Ruben D.",128818,"Tomazela,Virginia",010,010-Open,USA,FL,HRSHVG
544930,INT001,CLER,APP00065,4/16/2018,010,5/4/2018,1,1,L,RCCHQ,0200544,Recruiting,RCI,MIRAMARTSS,Intern FT,2018 Internship,Y,,,,N,NEW,Standard Requisition,111717,"Andreou,Kimon",111717,"Andreou,Kimon",128818,"Tomazela,Virginia",010,010-Open,USA,FL,HRSHBV
544936,INT001,CLER,APP00071,4/16/2018,010,5/1/2018,1,1,L,RCCHQ,0200544,Recruiting,RCI,RC1050,Intern FT,2018 Internship,Y,,,,N,NEW,Standard Requisition,125746,"Jones,Justus T.",129076,"Boccia,Mark Christopher",128818,"Tomazela,Virginia",010,010-Open,USA,FL,HRSHBV
544960,INT001,CLER,APP00095,4/16/2018,010,5/4/2018,1,1,L,RCCHQ,0200544,Recruiting,RCI,FIU,Intern FT,2018 Internship,Y,,,,N,NEW,Standard Requisition,100095,"Barrero,Katiuska O",100095,"Barrero,Katiuska O",128818,"Tomazela,Virginia",010,010-Open,USA,FL,HRSHBV
544961,INT001,CLER,APP00096,4/16/2018,010,5/2/2018,1,1,L,RCCHQ,0200544,Recruiting,RCI,FIU,Intern FT,2018 Internship,Y,,,,N,NEW,Standard Requisition,100095,"Barrero,Katiuska O",100095,"Barrero,Katiuska O",128818,"Tomazela,Virginia",010,010-Open,USA,FL,HRSHBV
544971,TGS443,PROF,00009530,4/17/2018,010,4/24/2018,1,1,L,CCCHQ,0500630,Onboard Revenue Ops,CCI,CC1050,"Analyst, Sr OnbdRev&Casno Stgy",Backfill for approved position.,Y,,,,N,RPL,Standard Requisition,130187,"Egbor,Vincent",126641,"Lucash,Evan B.",122192,"Del Llano,Janelle M.",010,010-Open,USA,FL,HRSHJDL
544990,SLS833,CLER,00015276,4/17/2018,010,4/18/2018,1,1,L,RCCHQ,0200708,708 CVP Service,RCI,OREGON,"Coord, CO Resolutions Project",,Y,,,,N,NEW,Standard Requisition,111955,"De Anda,Patricia",122802,"McCord,Heidi Maureen",110594,"Sturgeon,Amanda E",010,010-Open,USA,OR,HRSHLH
545024,RES226,ICLER,00015290,4/20/2018,010,4/20/2018,1,1,L,RCCHQ,0200610,RES/Key,RCI,OREGON,"Rep, Sr Cruise",,Y,,,,N,RPL,Standard Requisition,125636,"Bonnett,Laura I B",110196,"Hiam,Valerie M",110594,"Sturgeon,Amanda E",010,010-Open,USA,OR,HRSHLH
545025,FIN075,PROF,00012488,4/20/2018,010,4/20/2018,1,1,L,RCCHQ,0200593,Global Security,RCI,RC1050,"Spec, CareTeam",,Y,,,,N,RPL,Standard Requisition,112039,"Noble,Monica W",121456,"Cusumano,Rebecca",128818,"Tomazela,Virginia",010,010-Open,USA,FL,HRSHKA
545030,HAD060,DIR,00015291,4/23/2018,010,4/23/2018,1,1,L,CCCHQ,0500641,Guest Services,CCI,CC1050,"Dir, Hotel Operations CEL",Approved position. Re-purposing of existing headcount.,Y,,,,N,NEW,Standard Requisition,117924,"Davidoiu,Laurentiu C",122060,"O'Connor,Damien M",122192,"Del Llano,Janelle M.",010,010-Open,USA,FL,HRSHJDL
545076,INF291,PROF,00003452,4/26/2018,010,4/26/2018,1,1,L,RCCHQ,0200573,IT-Operations & Technology,RCI,MIRAMAR,Engineer,,Y,,,,N,RPL,Standard Requisition,121296,"Tobitt,Michael",102874,"Rothenberger,Robert M",114996,"Dunlap,Judith E",010,010-Open,USA,FL,HRSHJD
545077,INF291,PROF,00003426,4/26/2018,010,4/26/2018,1,1,L,RCCHQ,0200577,IT Tech Infra & Engineering,RCI,MIRAMAR,Engineer,,Y,,,,N,RPL,Standard Requisition,107222,"Gonzalez,Ernesto L",128509,"Harris,Brian Keith",114996,"Dunlap,Judith E",010,010-Open,USA,FL,HRSHPE
545097,INF409,MGR,00015307,4/27/2018,010,4/27/2018,1,1,L,RCCHQ,0200510,IT Security & Compliance,RCI,MIRAMAR,"Mgr, Maritime NB Cybersecurity",,Y,,,,N,NEW,Standard Requisition,127719,"Brazalovich,Alexander Michael",105525,"Perez,Guillermo F",114996,"Dunlap,Judith E",010,010-Open,USA,FL,HRSHPE
545109,ACC406,PROF,00009310,4/30/2018,010,4/30/2018,1,1,L,RCCHQ,0200550,RCI Accounting,RCI,RC1050,"Accountant II, Sr. Technical",,Y,,,,N,RPL,Standard Requisition,129266,"De la Cruz Rosaly,Victor Antonio",122895,"Minto,Abraham",111708,"Dunn,Michelle",010,010-Open,USA,FL,HRSHPE
545113,MAR221,MGR,00006922,5/1/2018,010,5/1/2018,1,1,L,RCCHQ,0200596,Environmental Stewardship,RCI,RC1050,"Mgr, Environmental Reg&Sustain",,Y,,,,N,RPL,Standard Requisition,110670,"Rose,Nicholas",110670,"Rose,Nicholas",128818,"Tomazela,Virginia",010,010-Open,USA,FL,HRSHKA
545115,SLS770,PROF,00002530,5/1/2018,010,5/1/2018,1,1,L,RCCHQ,0200705,CVP Operations RCI,RCI,OREGON,"Analyst, Sr Business Sales",,Y,,,,N,RPL,Standard Requisition,129380,"Barrier,Marcus Shane",119794,"Malhotra,Sameer",126923,"Sanders,Hannah K.",010,010-Open,USA,FL,HRSHHS
545120,INF099,MGR,00003535,5/2/2018,010,5/2/2018,1,1,L,RCCHQ,0200515,IT - CTO Trade Srvs & Call Ctr,RCI,MIRAMAR,Manager,,Y,,,,N,RPL,Standard Requisition,120733,"Waren,Timothy D",118534,"Wilson,Krista L",114996,"Dunlap,Judith E",010,010-Open,USA,FL,HRSHPE
545123,SEC005,SUPV,00005411,5/2/2018,010,5/2/2018,1,1,L,RCCHQ,0200593,Global Security,RCI,RC1050,Sr. Investigator,,Y,,,,N,RPL,Standard Requisition,123602,"Carey,Michael T.",117638,"Morris,Dwight D",128818,"Tomazela,Virginia",010,010-Open,USA,FL,HRSHPE
545130,TGS155,MGR,00003671,5/2/2018,010,5/2/2018,1,1,L,RCCHQ,0200629,Casino Operations,RCI,RC1050,"Mgr, Casino Operations Royal",,Y,,,,N,RPL,Standard Requisition,128949,"Roberts,Darren L",128949,"Roberts,Darren L",125904,"Canida,Marissa P.",010,010-Open,USA,FL,HRSHPR
545220,REV109,PROF,00006765,5/8/2018,010,5/8/2018,1,1,L,RCCHQ,0200644,Hotel Performance,RCI,RC1050,"Analyst, Sr Onb Rev&Analytics",,Y,,,,N,RPL,Standard Requisition,127800,"Ximenes,Alexandre",127800,"Ximenes,Alexandre",125904,"Canida,Marissa P.",010,010-Open,USA,FL,HRSHPR
545266,INF411,MGR,00015373,5/15/2018,010,5/15/2018,1,1,L,RCCHQ,0200510,IT Security & Compliance,RCI,MIRAMAR,"Mgr, Prgrm Maritime Cybersecur",,Y,,,,N,NEW,Standard Requisition,127409,"Smith,Matthew C",105525,"Perez,Guillermo F",114996,"Dunlap,Judith E",010,010-Open,USA,FL,HRSHPE
545271,MKT445,MGR,00015377,5/15/2018,010,5/15/2018,1,1,L,RCCHQ,0200773,Launch Creative,RCI,RC1080,"Mgr, Brand & Prod Marketing",,Y,,,,N,NEW,Standard Requisition,112779,"Sanchinel,Anthony R",112779,"Sanchinel,Anthony R",125904,"Canida,Marissa P.",010,010-Open,USA,FL,HRSHPR
545277,SLS225,MGR,00003615,5/16/2018,010,5/16/2018,1,1,L,RCCHQ,0200717,RCI Sales - SE 717,RCI,RC1080,"Mgr, Strategic Account Royal",,Y,,,,N,RPL,Standard Requisition,100190,"Meyers,Deborah J",100009,"Lynch,Mary R",125904,"Canida,Marissa P.",010,010-Open,USA,FL,HRSHMC
545278,INF346,PROF,00002658,5/16/2018,010,5/16/2018,1,1,L,RCCHQ,0200579,IT Project Mgmt Office,RCI,MIRAMAR,Analyst,,Y,,,,N,RPL,Standard Requisition,125149,"Geffrard,Ilsonet A",130005,"Sethi,Navpreet Singh",114996,"Dunlap,Judith E",010,010-Open,USA,FL,HRSHPE
545284,SLS804,ICLER,00002442,5/17/2018,010,5/17/2018,1,1,L,RCCHQ,0200713,Certified Vacation Planning,RCI,OREGON,"Agent, CO Inbound RCI",,Y,,,,N,RPL,Standard Requisition,129410,"Cruson,Stephen",110470,"Alexander,Tomissa K",110594,"Sturgeon,Amanda E",010,010-Open,USA,OR,HRSHLH
545286,TGS455,DIR,00015378,5/17/2018,010,5/17/2018,1,1,L,RCCHQ,0200629,Casino Operations,RCI,RC1050,"Dir, Casino Marketing",,Y,,,,N,NEW,Standard Requisition,128949,"Roberts,Darren L",121854,"Shen,Elisa D.",125904,"Canida,Marissa P.",010,010-Open,USA,FL,HRSHVG
545292,SLS824,ICLER,00013626,5/18/2018,010,7/19/2018,1,1,L,CCCHQ,0500708,CVP Services CEL,CCI,WESTON,"Agent, CO Blended Svc FT CEL",Termination generated job requisition,Y,,,,N,RPL,Standard Requisition,129340,"Diaz Quilotte,Luis A",121244,"Ramos,Kevin D",115013,"Barnes,Lisa A",010,010-Open,USA,FL,HRSHLB
545293,TOU429,CLER,00003501,5/18/2018,010,5/23/2018,1,1,L,RCCHQ,0200621,GTS ETT,RCI,RC1080,"Lead, GFO Agent",Transfer/Promotion generated job requisition,Y,,,,N,RPL,Standard Requisition,102206,"Brown,Alexandra",108869,"Diaz,Yliana",117603,"Mesa,Karina Almendral",010,010-Open,USA,FL,HRSHLB
545316,PCH505,PROF,CAR00050,5/22/2018,010,5/22/2018,1,1,L,RCCHQ,0200582,Purchasing - Newbuild 582,RCI,RC1080,Buyer III,,Y,,,,N,RPL,Standard Requisition,117711,"Spada,Katya Veronica",106723,"Garcia,Marilyn",117603,"Mesa,Karina Almendral",010,010-Open,USA,FL,HRSHVG
545317,INF955,PROF,00005025,5/22/2018,010,5/22/2018,1,1,L,RCCHQ,0200576,IT - Shipboard Tech & Ops,RCI,MIRAMAR,Senior Engineer,,Y,,,,N,RPL,Standard Requisition,106975,"Daley,Daniel D",117749,"Bonko,Jason F",114996,"Dunlap,Judith E",010,010-Open,USA,FL,HRSHVG
545318,DIG097,DIR,00015390,5/22/2018,010,5/22/2018,1,1,L,RCCHQ,0200554,Digital,RCI,RC1080,"Dir, Enterprise Data",,Y,,,,N,NEW,Standard Requisition,129015,"Marrelli,Carl Michael",128714,"Rashidi,Solmaz",114996,"Dunlap,Judith E",010,010-Open,USA,FL,HRSHVG
545321,PHP016,PROF,00011943,5/22/2018,010,5/30/2018,1,1,L,ROCHQ,86700546,Crew Administration,ROC,MANILA-ROC,"Spec, Vendor Mgmt & Crew Logis",Termination generated job requisition,,,,,N,RPL,Standard Requisition,126951,"Gutierrez,Alma Rose Alfaro",130223,"Garcia,Allan Merced",126501,"Cruz,Vivian Carr",010,010-Open,USA,,HRASJDC
545330,MKT852,PROF,00015394,5/23/2018,010,5/23/2018,1,1,L,CCCHQ,0500797,Celebrity Web,CCI,CC1080,"Analyst, Sr Digital eCommerce Product",New position approved by Peter and LLP.,Y,,,,N,NEW,Standard Requisition,128553,"Estrada-Mora,Mario Marcelo",130159,"Nunez,Monica Maria",122192,"Del Llano,Janelle M.",010,010-Open,USA,FL,HRSHJDL
545339,RES802,PROF,00014991,5/24/2018,010,5/24/2018,1,1,L,RCCHQ,0200607,Training Q/A,RCI,MIRAMARTSS,"Trainer, Global Contact Center",,Y,,,,N,RPL,Standard Requisition,109074,"Martin,Alejandra",101995,"Marmolejo-Perez,Jessica",125864,"Enriquez,Alice D.",010,010-Open,USA,FL,HRSHVG
545356,INF346,PROF,00010672,5/29/2018,010,5/29/2018,1,1,L,RCCHQ,0200579,IT Project Mgmt Office,RCI,MIRAMAR,Analyst,,Y,,,,N,RPL,Standard Requisition,126160,"Oliva,Enrique",130005,"Sethi,Navpreet Singh",114996,"Dunlap,Judith E",010,010-Open,USA,FL,HRSHJD
545357,LEG131,CLER,00004946,5/29/2018,010,5/29/2018,1,1,L,RCCHQ,0200551,Risk Management,RCI,RC1080,"Secretary, Legal",,Y,,,,N,RPL,Standard Requisition,130604,"Ruiz,Tricia Ann",114515,"Ginsberg,Randy",117603,"Mesa,Karina Almendral",010,010-Open,USA,FL,HRSHPE
545358,MKT369,MGR,00013112,5/29/2018,010,5/29/2018,1,1,L,RCCHQ,0200757,Mktg.One to One Communications,RCI,RC1080,"Sr Mgr, Brnd Dev NBRevites",,Y,,,,N,RPL,Standard Requisition,116835,"Artiles,Eduardo A",110108,"Dou,Jeannette Coto",125904,"Canida,Marissa P.",010,010-Open,USA,FL,HRSHMC
545362,REV117,PROF,00015414,5/30/2018,010,6/27/2018,1,1,L,RCCHQ,0200761,RCI Revenue Management 761,RCI,RC1080,"Analyst, Inventory Rev Mgmt",,Y,,,,N,NEW,Standard Requisition,113662,"Vela,Mabel",113662,"Vela,Mabel",125904,"Canida,Marissa P.",010,010-Open,USA,FL,HRSHPR
545364,INF221,PROF,00005076,5/30/2018,010,5/30/2018,1,1,L,RCCHQ,0200576,IT - Shipboard Tech & Ops,RCI,MIRAMAR,"Analyst, Sr",,Y,,,,N,RPL,Standard Requisition,100458,"Garcia,Michelle",108495,"Calero,Benito",114996,"Dunlap,Judith E",010,010-Open,USA,FL,HRSHVG
545381,SLS396,PROF,00005360,5/30/2018,010,5/30/2018,1,1,L,RCCHQ,0200711,Inside Sales,RCI,RC1080,"Spec, Sr. Business Development",,Y,,,,N,RPL,Standard Requisition,120948,"Bendana,Sergio I",100824,"Meloro,Anthony",125904,"Canida,Marissa P.",010,010-Open,USA,FL,HRSHMC
545413,SLS681,PROF,00005121,6/1/2018,010,6/1/2018,1,1,L,RCCHQ,0200711,Inside Sales,RCI,RC1080,"Spec, Business Development",,Y,,,,N,RPL,Standard Requisition,100824,"Meloro,Anthony",100824,"Meloro,Anthony",125904,"Canida,Marissa P.",010,010-Open,USA,FL,HRSHMC
545416,RES114,ICLER,00004904,6/1/2018,010,7/17/2018,1,1,L,CCCHQ,0500612,CEL Customer Service,CCI,WICHITA,"Spec, Engagement OTH",Termination generated job requisition,Y,,,,N,RPL,Standard Requisition,112948,"Railsback,Elise K",112068,"Maley,Mallory M",115013,"Barnes,Lisa A",010,010-Open,USA,KS,HRSHLB
545418,MKT447,MGR,00016014,6/4/2018,010,6/4/2018,1,1,L,RCCHQ,0200757,Mktg.One to One Communications,RCI,RC1080,"Mgr, ProdDev Asia Australia PD",,Y,,,,N,NEW,Standard Requisition,126824,"Zhankov,Maria",121996,"Diaz-Gonzalez,Claudia C.",125904,"Canida,Marissa P.",010,010-Open,USA,FL,HRSHVG
545419,MKT448,MGR,00016015,6/4/2018,010,6/4/2018,1,1,L,RCCHQ,0200757,Mktg.One to One Communications,RCI,RC1080,"Mgr, ProdDev Caribbean PrivDes",,Y,,,,N,NEW,Standard Requisition,121996,"Diaz-Gonzalez,Claudia C.",121996,"Diaz-Gonzalez,Claudia C.",125904,"Canida,Marissa P.",010,010-Open,USA,FL,HRSHVG
545420,MAR323,SUPV,00015428,6/4/2018,010,6/4/2018,1,1,L,RCCHQ,0200599,NB Technical Revitalization,RCI,NEWBUILD,"Asst, Project Mgr, Space Mgr",,Y,,,,N,NEW,Standard Requisition,129712,"Mercado,Lauren Saul",109031,"Lewis,Eric",117603,"Mesa,Karina Almendral",010,010-Open,USA,FL,HRSHTSB
545421,MAR323,SUPV,00015428,6/4/2018,010,6/4/2018,1,1,L,RCCHQ,0200599,NB Technical Revitalization,RCI,NEWBUILD,"Asst, Project Mgr, Space Mgr",,Y,,,,N,NEW,Standard Requisition,129712,"Mercado,Lauren Saul",109031,"Lewis,Eric",117603,"Mesa,Karina Almendral",010,010-Open,USA,FL,HRSHTSB
545436,TGS504,DIR,00015427,6/5/2018,010,6/5/2018,1,1,L,CCCHQ,0500680,Entertainment,CCI,CC1050,"Dir, Ent Strategy Development",Position approved by LLP and Brian Abel.,Y,,,,N,NEW,Standard Requisition,102441,"Givens,Leigh-Ann",113818,"Thomson-Foley,Rebecca D.",122192,"Del Llano,Janelle M.",010,010-Open,USA,FL,HRSHJDL
545442,INF291,PROF,00012740,6/5/2018,010,6/5/2018,1,1,L,RCCHQ,0200573,IT-Operations & Technology,RCI,MIRAMAR,Engineer,,Y,,,,N,RPL,Standard Requisition,103968,"Verdiner,Rodney",102895,"Irastorza,Leonardo G",114996,"Dunlap,Judith E",010,010-Open,USA,FL,HRSHJD
545443,FIN128,SUPV,00002822,6/5/2018,010,6/5/2018,1,1,L,RCCHQ,0200594,Newbuilding Executive & Financ,RCI,RC1050,"Lead, Financial Newbuild",,Y,,,,N,RPL,Standard Requisition,120244,"Loeb,Natalia L",119000,"Schneider,Daniel S.",117603,"Mesa,Karina Almendral",010,010-Open,USA,FL,HRSHVG
545462,MAR323,SUPV,00015443,6/7/2018,010,6/7/2018,1,1,L,RCCHQ,0200599,NB Technical Revitalization,RCI,NEWBUILD,"Asst, Project Mgr, Space Mgr",,Y,,,,N,NEW,Standard Requisition,129712,"Mercado,Lauren Saul",109031,"Lewis,Eric",117603,"Mesa,Karina Almendral",010,010-Open,USA,FL,HRSHTSB
545466,TGS244,CLER,00003262,6/7/2018,010,6/7/2018,1,1,L,RCCHQ,0200680,Fleet Entertainment,RCI,RC1050,"Coord, Travel",,Y,,,,N,RPL,Standard Requisition,102782,"Guerra,Teresa C",102782,"Guerra,Teresa C",125904,"Canida,Marissa P.",010,010-Open,USA,FL,HRSHPR
545477,INF376,MGR,00016025,6/8/2018,010,6/8/2018,1,1,L,RCCHQ,0200574,"IT-GBS-Rev/AirSea, Call Center",RCI,RC1050,"Bus. Relationship Partner, IT",,Y,,,,N,NEW,Standard Requisition,108266,"Criado,Alejandro J",108266,"Criado,Alejandro J",114996,"Dunlap,Judith E",010,010-Open,USA,FL,HRSHPE
545479,HRS364,DIR,00016026,6/8/2018,010,6/8/2018,1,1,L,RCCHQ,0200540,RCI HR Executive,RCI,RC1050,"Dir, HR Analytics&Data Govern",,Y,,,,N,NEW,Standard Requisition,106402,"Honig,Lina M",130563,"Crumley Jr,David",128818,"Tomazela,Virginia",010,010-Open,USA,FL,HRSHVG
545481,MKT455,PROF,00016029,6/8/2018,010,6/8/2018,1,1,L,RCCHQ,0200709,eDistribution,RCI,RC1080,"Spec, Trade Automation",,Y,,,,N,NEW,Standard Requisition,129505,"Chicre da Costa Nicolau,Bernardo",100178,"Silva,Juan C",126923,"Sanders,Hannah K.",010,010-Open,USA,FL,HRSHVG
545482,MKT455,PROF,00016028,6/8/2018,010,6/8/2018,1,1,L,RCCHQ,0200709,eDistribution,RCI,RC1080,"Spec, Trade Automation",,Y,,,,N,NEW,Standard Requisition,129505,"Chicre da Costa Nicolau,Bernardo",100178,"Silva,Juan C",126923,"Sanders,Hannah K.",010,010-Open,USA,FL,HRSHVG
545483,MKT449,PROF,00016030,6/11/2018,010,6/11/2018,1,1,L,RCCHQ,0200757,Mktg.One to One Communications,RCI,RC1080,"Sr AE, ProdDev Caribbean PrivD",,Y,,,,N,NEW,Standard Requisition,121996,"Diaz-Gonzalez,Claudia C.",121996,"Diaz-Gonzalez,Claudia C.",125904,"Canida,Marissa P.",010,010-Open,USA,FL,HRSHPR
545485,TGS255,PROF,00015455,6/11/2018,010,6/11/2018,1,1,L,RCCHQ,0200629,Casino Operations,RCI,RC1050,"Spec, VIP Program",,Y,,,,N,NEW,Standard Requisition,106691,"Pichardo Franco,Dania M",106691,"Pichardo Franco,Dania M",125904,"Canida,Marissa P.",010,010-Open,USA,FL,HRSHPR
545486,MKT838,PROF,00009429,6/11/2018,010,6/11/2018,1,1,L,CCCHQ,0500763,763 E-Marketing & distribution,CCI,CC1080,"Analyst, Sr Email Campgn&Dist",Backfill for approved position.,Y,,,,N,RPL,Standard Requisition,124439,"Levi,Ezra Joel",123678,"Carcases Diaz,Mariela",122192,"Del Llano,Janelle M.",010,010-Open,USA,FL,HRSHJDL
545501,INF291,PROF,00002664,6/12/2018,010,6/12/2018,1,1,L,RCCHQ,0200573,IT-Operations & Technology,RCI,MIRAMAR,Engineer,,Y,,,,N,RPL,Standard Requisition,119650,"Oria,Charles",102874,"Rothenberger,Robert M",114996,"Dunlap,Judith E",010,010-Open,USA,FL,HRSHPE
545502,MKT114,PROF,00009971,6/12/2018,010,6/12/2018,1,1,L,RCCHQ,0200773,Launch Creative,RCI,RC1080,"Acct Exec, Sr Creative Traffic",,Y,,,,N,RPL,Standard Requisition,112779,"Sanchinel,Anthony R",112779,"Sanchinel,Anthony R",125904,"Canida,Marissa P.",010,010-Open,USA,FL,HRSHPR
545503,AUS085,PROF,00001826,6/13/2018,010,7/5/2018,1,1,L,RCAUS,85000731,731 Office Admin & Ops G&A,RC3,SYDNEY,"Exec, Sr Brand Mktg Comm RCI",Termination generated job requisition,,,,,N,RPL,Standard Requisition,125019,"Williams,Peta",128943,"Walter,Jennifer",115438,"Riley,Danielle",010,010-Open,USA,NSW,HRAUKK
545503,AUS085,PROF,00001826,6/13/2018,010,7/5/2018,1,1,L,RCAUS,85000731,731 Office Admin & Ops G&A,RC3,SYDNEY,"Exec, Sr Brand Mktg Comm RCI",Termination generated job requisition,,,,,N,RPL,Standard Requisition,125019,"Williams,Peta",128943,"Walter,Jennifer",115438,"Riley,Danielle",010,010-Open,USA,NSW,HRAUKK
545505,MKT603,PROF,00010791,6/13/2018,010,6/13/2018,1,1,L,RCCHQ,0200773,Launch Creative,RCI,RC1080,"Designer, Graphic Royal",,Y,,,,N,RPL,Standard Requisition,112779,"Sanchinel,Anthony R",112779,"Sanchinel,Anthony R",125904,"Canida,Marissa P.",010,010-Open,USA,FL,HRSHPR
545506,MAR356,SUPV,00015425,6/13/2018,010,6/13/2018,1,1,L,RCCHQ,0200594,Newbuilding Executive & Financ,RCI,NEWBUILD,"Lead, Guarantee Claims",,,,,,N,NEW,Standard Requisition,129712,"Mercado,Lauren Saul",103940,"Miorelli,Joseph",117603,"Mesa,Karina Almendral",010,010-Open,USA,FL,HRSHTSB
545508,RES814,CLER,00015462,6/13/2018,010,6/13/2018,1,1,L,RCCHQ,0200625,Groups/STAR,RCI,MIRAMARTSS,"Coord, Resolutions Project",,Y,,,,N,RPL,Standard Requisition,120070,"Bidwell,Joy K.",101407,"Robinson,Evone S",125864,"Enriquez,Alice D.",010,010-Open,USA,OR,HRSHLH
545512,TGS460,SUPV,CAR00028,6/13/2018,010,6/13/2018,1,1,L,RCCHQ,0200642,Food & Beverage,RCI,RC1050,"Lead, F&B Expense Strat Analys",,Y,,,,N,RPL,Standard Requisition,130341,"Fortin,Paul Albert",130341,"Fortin,Paul Albert",125904,"Canida,Marissa P.",010,010-Open,USA,FL,HRSHPR
545514,GEN225,CLER,00004923,6/13/2018,010,6/13/2018,1,1,L,RCCHQ,0200610,RES/Key,RCI,OREGON,"Secretary, Sr",,Y,,,,N,RPL,Standard Requisition,120063,"Anderson,Mahal E.",100713,"Stolze,Rita M",110594,"Sturgeon,Amanda E",010,010-Open,USA,OR,HRSHLH
545522,AZA059,MGR,00015466,6/14/2018,010,6/14/2018,1,1,L,AZAHQ,0400710,710 AZA VP Sales,AZA,AZ1050,"Mgr, Sls Planning & Analysis",,Y,,,,N,NEW,Standard Requisition,113741,"Mesa,Damaris",116294,"Lindstad,Nils",111708,"Dunn,Michelle",010,010-Open,USA,FL,HRSHPE
545524,SLS314,ICLER,00012655,6/14/2018,010,6/14/2018,1,1,L,RCCHQ,0200713,Certified Vacation Planning,RCI,OREGON,"Team Lead, CO Inbound RCI",,Y,,,,N,RPL,Standard Requisition,125818,"Osborn,Anna Danielle",129176,"Lilley,Tracy Lynn",110594,"Sturgeon,Amanda E",010,010-Open,USA,OR,HRSHLH
545536,SLS134,PROF,00005158,6/15/2018,010,6/15/2018,1,1,L,RCCHQ,0200727,Corp/ Incentives & FCC,RCI,RC1080,"Spec, Corporate Sales",,Y,,,,N,RPL,Standard Requisition,108292,"Santelices,Jason E",108292,"Santelices,Jason E",125904,"Canida,Marissa P.",010,010-Open,USA,FL,HRSHPR
545545,FIN189,SUPV,00002872,6/18/2018,010,6/18/2018,1,1,L,RCCHQ,0200564,RCI Finance,RCI,RC1050,"Lead, Finance Hotel Operations",,Y,,,,N,RPL,Standard Requisition,106201,"Palacios,Katherine Kadison",106201,"Palacios,Katherine Kadison",125904,"Canida,Marissa P.",010,010-Open,USA,FL,HRSHPR
545546,MKT432,PROF,00014730,6/18/2018,010,6/18/2018,1,1,L,RCCHQ,0200799,Consumer Insight Unit,RCI,RC1080,"Analyst, Insights & Analytics",,Y,,,,N,RPL,Standard Requisition,126892,"Tang,Adam Michael",116835,"Artiles,Eduardo A",125904,"Canida,Marissa P.",010,010-Open,USA,FL,HRSHMC
545550,TGS461,DIR,00015473,6/18/2018,010,6/18/2018,1,1,L,RCCHQ,0200680,Fleet Entertainment,RCI,RC1050,"Dir, Entertainment Technical",,Y,,,,N,NEW,Standard Requisition,125622,"Rush,Kenneth Philip",122571,"Weir,Nicholas W.",125904,"Canida,Marissa P.",010,010-Open,USA,FL,HRSHVG
545551,PPG152,MGR,00003866,6/18/2018,010,6/18/2018,1,1,L,RCCHQ,0200627,Port Services,RCI,RC1050,"Mgr, Worldwide Port Operations",,Y,,,,N,RPL,Standard Requisition,124843,"Gies,Meaghan E.",121173,"Zini,Hernan F",117603,"Mesa,Karina Almendral",010,010-Open,USA,FL,HRSHPE
545552,MKT456,PROF,00015474,6/18/2018,010,6/18/2018,1,1,L,RCCHQ,0200757,Mktg.One to One Communications,RCI,RC1080,"Designer, Graphic Concept Dev",,Y,,,,N,NEW,Standard Requisition,128808,"Bojorge,Sofia Isabel",116835,"Artiles,Eduardo A",125904,"Canida,Marissa P.",010,010-Open,USA,FL,HRSHVG
545558,SLS068,PROF,00010414,6/19/2018,010,6/19/2018,1,1,L,RCCHQ,0200727,Corp/ Incentives & FCC,RCI,RC1080,"Acct Exec, Glbl CMI & Chrt Sal",,Y,,,,N,RPL,Standard Requisition,108874,"Kane,Keri A",108874,"Kane,Keri A",125904,"Canida,Marissa P.",010,010-Open,USA,FL,HRSHMC
545560,REV117,PROF,00015478,6/19/2018,010,6/19/2018,1,1,L,RCCHQ,0200761,RCI Revenue Management 761,RCI,RC1080,"Analyst, Inventory Rev Mgmt",,Y,,,,N,NEW,Standard Requisition,113662,"Vela,Mabel",113662,"Vela,Mabel",125904,"Canida,Marissa P.",010,010-Open,USA,FL,HRSHPR
545574,MKT338,MGR,00016039,6/20/2018,010,6/20/2018,1,1,L,RCCHQ,0200757,Mktg.One to One Communications,RCI,RC1080,"Mgr, Guest Commerce",,Y,,,,N,NEW,Standard Requisition,124813,"Kazarian,Ani K",124749,"De la Cruz,Leysa Marrero",125904,"Canida,Marissa P.",010,010-Open,USA,FL,HRSHPR
545575,TGS463,PROF,00015486,6/20/2018,010,6/20/2018,1,1,L,RCCHQ,0200629,Casino Operations,RCI,RC1050,"Spec, Casino Compliance&Survl",,Y,,,,N,NEW,Standard Requisition,128949,"Roberts,Darren L",128949,"Roberts,Darren L",125904,"Canida,Marissa P.",010,010-Open,USA,FL,HRSHPR
545581,TGS956,PROF,00015487,6/20/2018,010,6/20/2018,1,1,L,RCCHQ,0200640,Hotel Operations,RCI,RC1050,"Analyst, Priv Dest Financial",,Y,,,,N,NEW,Standard Requisition,103885,"Aguiar,Militza",103885,"Aguiar,Militza",125904,"Canida,Marissa P.",010,010-Open,USA,FL,HRSHPR
545591,RES206,ICLER,00012781,6/20/2018,010,6/23/2018,1,1,L,CCCHQ,0500609,CEL Reserv/Key Accounts,CCI,WICHITA,"Spec, Reservations Resolution",Transfer/Promotion generated job requisition,Y,,,,N,RPL,Standard Requisition,128266,"Clark,Kayla L",104554,"Bathgate,April",115013,"Barnes,Lisa A",010,010-Open,USA,KS,HRSHLB
545596,TGS957,SUPV,00015488,6/20/2018,010,6/20/2018,1,1,L,RCCHQ,0200640,Hotel Operations,RCI,RC1050,"Lead, Private Destinations",,Y,,,,N,NEW,Standard Requisition,121567,"Ben Horin,Dotan",121567,"Ben Horin,Dotan",125904,"Canida,Marissa P.",010,010-Open,USA,FL,HRSHPR
545601,TGS464,MGR,00015491,6/20/2018,010,6/20/2018,1,1,L,RCCHQ,0200629,Casino Operations,RCI,RC1050,"Mgr, Business Development",,Y,,,,N,NEW,Standard Requisition,121854,"Shen,Elisa D.",121854,"Shen,Elisa D.",125904,"Canida,Marissa P.",010,010-Open,USA,FL,HRSHPR
545608,TGS462,SUPV,00015496,6/21/2018,010,6/21/2018,1,1,L,RCCHQ,0200757,Mktg.One to One Communications,RCI,RC1050,"Lead, Finance Private Destinat",,Y,,,,N,NEW,Standard Requisition,116066,"Quiles,Millie A",103044,"Boink Jr,James N",125904,"Canida,Marissa P.",010,010-Open,USA,FL,HRSHVG
545611,MAR280,PROF,00016041,6/21/2018,010,6/21/2018,1,1,L,RCCHQ,0200523,NB Project Management,RCI,NEWBUILD,"Spec, Program",,Y,,,,Y,NEW,Standard Requisition,125758,"Shaheen,Stephanie A",126618,"Vega,Alitza S.",117603,"Mesa,Karina Almendral",010,010-Open,USA,FL,HRSHTSB
545615,RES534,ICLER,00008735,6/21/2018,010,6/21/2018,1,1,L,RCCHQ,0200625,Groups/STAR,RCI,OREGON,"Coord, Shipboard Event",,Y,,,,N,RPL,Standard Requisition,119845,"Alvarez,Maida",111015,"Keough,Kelsey L",110594,"Sturgeon,Amanda E",010,010-Open,USA,FL,HRSHLH
545616,RES534,ICLER,00008735,6/21/2018,010,6/21/2018,1,1,L,RCCHQ,0200625,Groups/STAR,RCI,MIRAMAR,"Coord, Shipboard Event",,Y,,,,N,RPL,Standard Requisition,119845,"Alvarez,Maida",111015,"Keough,Kelsey L",117972,"Thies,Cynthia T",010,010-Open,USA,FL,HRSHLH
545621,AZA032,DIR,00000093,6/25/2018,010,6/25/2018,1,1,L,AZAHQ,0400501,Azamara SG&A,AZA,AZ1050,"Dir, Hotel Operations Azamara",,Y,,,,N,RPL,Standard Requisition,121009,"Daniels,Scott",121009,"Daniels,Scott",111708,"Dunn,Michelle",010,010-Open,USA,FL,HRSHPE
545622,MAR535,MGR,00003795,6/25/2018,010,6/25/2018,1,1,L,RCCHQ,0200686,"Risk, Safety & Compliance",RCI,RC1050,"Mgr, Gbl Nau Assts,Sfty,& Prog",Backfill for approved position.,Y,,,,N,RPL,Standard Requisition,104260,"Carcache-Jatib,Maria",118771,"Pedercini,Carlos",122192,"Del Llano,Janelle M.",010,010-Open,USA,FL,HRSHJDL
545626,FIN712,MGR,00015504,6/25/2018,010,6/25/2018,1,1,L,RCCHQ,0200569,Corporate Development,RCI,RC1050,"Sr Mgr, Corporate Development",,Y,,,,N,NEW,Standard Requisition,129097,"Beno,Noam",127278,"Suarez,Alfredo Antonio",111708,"Dunn,Michelle",010,010-Open,USA,FL,HRSHPE
545627,PPG310,MGR,00003723,6/25/2018,010,6/25/2018,1,1,L,RCCHQ,0200627,Port Services,RCI,RC1050,"Sr Mgr, Finance & Ops Support",,Y,,,,N,RPL,Standard Requisition,125552,"Claudio,Ana Cristina",100503,"Riumbau,Conrad J",117603,"Mesa,Karina Almendral",010,010-Open,USA,FL,HRSHKA
545628,FIN359,SUPV,00002825,6/25/2018,010,6/25/2018,1,1,L,RCCHQ,0200627,Port Services,RCI,RC1050,"Lead, GPS Finance & Admin",,Y,,,,N,NEW,Standard Requisition,125552,"Claudio,Ana Cristina",100503,"Riumbau,Conrad J",130417,"Ellingsworth-Perez,Priscilla",010,010-Open,USA,FL,HRSHKA
545632,REV256,PROF,00015506,6/26/2018,010,6/26/2018,1,1,L,CCCHQ,0500761,CCI Revenue Mgmt,CCI,CC1080,"Analyst, Rev Mgmnt Glbl Strtgy",Approved by Lisa Lutoff-Perlo and Julie Shiell.,Y,,,,N,NEW,Standard Requisition,129517,"Vergara,Mayen Zairit",118587,"Mitchell,Melissa",122192,"Del Llano,Janelle M.",010,010-Open,USA,FL,HRSHJDL
545635,REV242,PROF,00015507,6/26/2018,010,6/26/2018,1,1,L,CCCHQ,0500761,CCI Revenue Mgmt,CCI,CC1080,"Analyst, Revenue Management",Position approved by Lisa Lutoff-Perlo.,Y,,,,N,NEW,Standard Requisition,102068,"Rodriguez,Tania",121027,"Gundlach,Lucas M",122192,"Del Llano,Janelle M.",010,010-Open,USA,FL,HRSHJDL
545640,TOU126,DIR,00003378,6/26/2018,010,6/26/2018,1,1,L,RCCHQ,0200615,Guest Travel Services,RCI,RC1080,"Director, Travel Services",,Y,,,,N,RPL,Standard Requisition,100941,"Castro,Sonia",115295,"Jones,Michael",117603,"Mesa,Karina Almendral",010,010-Open,USA,FL,HRSHPE
545654,MAR116,PROF,00015497,6/27/2018,010,6/28/2018,1,1,L,RCCHQ,0200523,NB Project Management,RCI,NEWBUILD,"Associate, Program",,Y,,,,N,NEW,Standard Requisition,126899,"Rosser III,John Oliver",113201,"Key Tielebein,Denise",117603,"Mesa,Karina Almendral",010,010-Open,USA,FL,HRSHPE
545655,MAR280,PROF,00015510,6/27/2018,010,6/28/2018,1,1,L,RCCHQ,0200523,NB Project Management,RCI,NEWBUILD,"Spec, Program",,Y,,,,N,NEW,Standard Requisition,130128,"Munoz,Monica",113201,"Key Tielebein,Denise",117603,"Mesa,Karina Almendral",010,010-Open,USA,FL,HRSHPE
545656,MAR280,PROF,00015513,6/27/2018,010,6/28/2018,1,1,L,RCCHQ,0200523,NB Project Management,RCI,NEWBUILD,"Spec, Program",,Y,,,,N,NEW,Standard Requisition,125758,"Shaheen,Stephanie A",126618,"Vega,Alitza S.",117603,"Mesa,Karina Almendral",010,010-Open,USA,FL,HRSHPE
545657,PPG154,DIR,00003370,6/27/2018,010,6/27/2018,1,1,L,RCCHQ,0200627,Port Services,RCI,RC1050,"Dir, Worldwide Port Operations",,Y,,,,N,RPL,Standard Requisition,125908,"Kennings,LeVar O.",121173,"Zini,Hernan F",117603,"Mesa,Karina Almendral",010,010-Open,USA,FL,HRSHKA
545671,TGS465,DIR,00015516,6/28/2018,010,6/28/2018,1,1,L,RCCHQ,0200629,Casino Operations,RCI,RC1050,"Dir, Photo Operations",,Y,,,,N,NEW,Standard Requisition,128949,"Roberts,Darren L",121854,"Shen,Elisa D.",125904,"Canida,Marissa P.",010,010-Open,USA,FL,HRSHVG
545685,TGS958,DIR,00015518,6/29/2018,010,6/29/2018,1,1,L,CCCHQ,0500630,Onboard Revenue Ops,CCI,CC1050,"Dir, OBR BI, Data & Analytics",Position approved by Brian Abel and LLP.,Y,,,,N,NEW,Standard Requisition,124914,"Barinaga,Walter M.",116830,"McCarthy,Michael",122192,"Del Llano,Janelle M.",010,010-Open,USA,FL,HRSHJDL
545687,SLS795,SUPV,00010354,6/29/2018,010,7/2/2018,1,1,L,RCCHQ,0200708,708 CVP Service,RCI,OREGON,"Supv, CO Resolutions",,Y,,,,N,RPL,Standard Requisition,121463,"Brockmann,Alexander R",121612,"Kendall,Jarrid G",110594,"Sturgeon,Amanda E",010,010-Open,USA,OR,HRSHLH
545706,TGS390,MGR,00009715,7/1/2018,010,7/1/2018,1,1,L,CCCHQ,0500612,CEL Customer Service,CCI,WICHITA,"Sr Mgr, One Touch Celebrity",Termination generated job requisition,Y,,,,N,RPL,Standard Requisition,110027,"Steinke,Collin M",117924,"Davidoiu,Laurentiu C",115013,"Barnes,Lisa A",010,010-Open,USA,CA,HRSHLB
545716,SLS825,CLER,00005134,7/2/2018,010,7/2/2018,1,1,L,RCCHQ,0200711,Inside Sales,RCI,RC1080,"Admin, Business Development",,Y,,,,N,RPL,Standard Requisition,100824,"Meloro,Anthony",100824,"Meloro,Anthony",125904,"Canida,Marissa P.",010,010-Open,USA,FL,HRSHPR
545719,TGS408,MGR,00013914,7/2/2018,010,7/2/2018,1,1,L,RCCHQ,0200641,Guest Services,RCI,RC1050,"Sr Mgr, Program Hotel Ops",,Y,,,,N,RPL,Standard Requisition,108581,"Teissonniere,Louis Fabien",108581,"Teissonniere,Louis Fabien",125904,"Canida,Marissa P.",010,010-Open,USA,FL,HRSHPR
545723,MAR049,PROF,00015522,7/2/2018,010,7/2/2018,1,1,L,RCCHQ,0200519,NB Project Design,RCI,NEWBUILD,"Engineer, CAD & Systems",,Y,,,,N,NEW,Standard Requisition,127452,"Barton,Erin Lee",128320,"Shealy III,Fred Gray",117603,"Mesa,Karina Almendral",010,010-Open,USA,FL,HRSHPE
545743,MKT341,PROF,00015527,7/3/2018,010,7/3/2018,1,1,L,RCCHQ,0200727,Corp/ Incentives & FCC,RCI,MIRAMARTSS,"Spec, Charter Operations",,Y,,,,N,NEW,Standard Requisition,104687,"Ortiz,Karen M",123025,"Tanenbaum,Debbi L.",125904,"Canida,Marissa P.",010,010-Open,USA,FL,HRSHVG
545744,SLS134,PROF,00015526,7/3/2018,010,7/9/2018,1,1,L,RCCHQ,0200727,Corp/ Incentives & FCC,RCI,RC1080,"Spec, Corporate Sales",,Y,,,,N,NEW,Standard Requisition,126094,"Vega,Diosmary",108292,"Santelices,Jason E",125904,"Canida,Marissa P.",010,010-Open,USA,FL,HRSHVG
545746,MKT131,PROF,00015525,7/3/2018,010,7/3/2018,1,1,L,RCCHQ,0200727,Corp/ Incentives & FCC,RCI,MIRAMARTSS,"Acct Exec,Corp. Incent Charter",,Y,,,,N,NEW,Standard Requisition,104458,"Fernandez-Naser,Daniel",123025,"Tanenbaum,Debbi L.",125904,"Canida,Marissa P.",010,010-Open,USA,FL,HRSHVG
545765,HRS185,MGR,00013387,7/5/2018,010,7/5/2018,1,1,L,RCCHQ,0200554,Digital,RCI,RC1080,"Sr Mgr, Enterprise Transform",,Y,,,,Y,RPL,Standard Requisition,113195,"Arango,Lina M",126993,"Bruno,Jennifer",114996,"Dunlap,Judith E",010,010-Open,USA,FL,HRSHJD
545774,RES108,MGR,00003707,7/5/2018,010,7/5/2018,1,1,L,RCCHQ,0200611,Customer Service,RCI,MIRAMARTSS,"Sr Mgr, Glb Guest Reltn OneTch",backfill for approved position.,Y,,,,N,RPL,Standard Requisition,115513,"Lukacs,Nicole M",109566,"Yera-Rodriguez,Aurora",125864,"Enriquez,Alice D.",010,010-Open,USA,FL,HRSHAE
545784,ACC841,SUPV,00001891,7/6/2018,010,7/6/2018,1,1,L,RCCHQ,0200550,RCI Accounting,RCI,RC1050,"Lead, Internal Fin Reporting",,Y,,,,N,RPL,Standard Requisition,122441,"Fernandez,Eric J.",110794,"Rodriguez,Daena T",111708,"Dunn,Michelle",010,010-Open,USA,FL,HRSHPE
545785,INF273,PROF,00002656,7/6/2018,010,7/6/2018,1,1,L,RCCHQ,0200574,"IT-GBS-Rev/AirSea, Call Center",RCI,RC1050,"Analyst, Sr BRM Shipboard",,Y,,,,N,RPL,Standard Requisition,119732,"Bernhey II,William H",123916,"Caulfield,Cecille Isabel",114996,"Dunlap,Judith E",010,010-Open,USA,FL,HRSHPE
545788,HRS184,MGR,00015532,7/6/2018,010,7/6/2018,1,1,L,RCCHQ,0200554,Digital,RCI,RC1080,"Mgr, Enterprise Transform",,Y,,,,N,NEW,Standard Requisition,113195,"Arango,Lina M",126993,"Bruno,Jennifer",114996,"Dunlap,Judith E",010,010-Open,USA,FL,HRSHPE
545789,HRS184,MGR,00015533,7/6/2018,010,7/6/2018,1,1,L,RCCHQ,0200554,Digital,RCI,RC1080,"Mgr, Enterprise Transform",,Y,,,,N,NEW,Standard Requisition,113195,"Arango,Lina M",126993,"Bruno,Jennifer",114996,"Dunlap,Judith E",010,010-Open,USA,FL,HRSHPE
545790,PCH049,MGR,00003823,7/6/2018,010,7/6/2018,1,1,L,RCCHQ,0200582,Purchasing - Newbuild 582,RCI,RC1050,"Mgr, Commodity",,Y,,,,N,RPL,Standard Requisition,112354,"Schulte,Jason",101195,"Guilbaud,Carla",117603,"Mesa,Karina Almendral",010,010-Open,USA,OR,HRSHPE
545791,MKT853,MGR,00015534,7/6/2018,010,7/6/2018,1,1,L,CCCHQ,0500760,760 Market Planning,CCI,CC1080,"Mgr, Brand Strategy & Mkt",New position approved by Peter Giorgi and LLP.,Y,,,,N,NEW,Standard Requisition,126265,"Ingraham,Katherine",103990,"Taleno,Dominique P.",122192,"Del Llano,Janelle M.",010,010-Open,USA,FL,HRSHJDL
545796,TGS469,CLER,00015537,7/9/2018,010,7/9/2018,1,1,L,RCCHQ,0200642,Food & Beverage,RCI,RC1050,"Admin, Database&TechnicaWriter",,Y,,,,N,NEW,Standard Requisition,130341,"Fortin,Paul Albert",130341,"Fortin,Paul Albert",125904,"Canida,Marissa P.",010,010-Open,USA,FL,HRSHPR
545799,TOU013,ICLER,00015152,7/9/2018,010,7/9/2018,1,1,L,RCCHQ,0200620,GTS Operation,RCI,WICHITA,"Agent, Air Reservation",Replace Yoni Linares.,Y,,,,N,RPL,Standard Requisition,130684,"Linares,Yoni A",126042,"Gawanda,Steven J",115013,"Barnes,Lisa A",010,010-Open,USA,KS,HRSHLB
545800,TGS468,MGR,00015535,7/9/2018,010,7/9/2018,1,1,L,RCCHQ,0200646,Newbuild & Modernization Prog.,RCI,RC1050,"Mgr, Hotel Newbuild Projects",,Y,,,,N,NEW,Standard Requisition,108581,"Teissonniere,Louis Fabien",108581,"Teissonniere,Louis Fabien",106201,"Palacios,Katherine Kadison",010,010-Open,USA,FL,HRSHPR
545801,TGS467,SUPV,00015536,7/9/2018,010,7/9/2018,1,1,L,RCCHQ,0200646,Newbuild & Modernization Prog.,RCI,RC1050,"Project Mgr, NB&Modernization",,Y,,,,N,NEW,Standard Requisition,108581,"Teissonniere,Louis Fabien",108581,"Teissonniere,Louis Fabien",106201,"Palacios,Katherine Kadison",010,010-Open,USA,FL,HRSHPR
545802,REV120,SUPV,00012995,7/10/2018,010,7/10/2018,1,1,L,RCCHQ,0200761,RCI Revenue Management 761,RCI,RC1080,"Lead, Rev Data & Optimization",,Y,,,,N,RPL,Standard Requisition,126561,"Carroll,Joshua Aaron",126561,"Carroll,Joshua Aaron",125904,"Canida,Marissa P.",010,010-Open,USA,FL,HRSHPR
545805,RES311,ICLER,00016090,7/10/2018,010,7/10/2018,1,1,L,AZAHQ,0400606,AZA  RES - KEY,AZA,AZAWICH,"Rep, Azamara MultiSkill Shift","AZ Club Cruise Position in Wichita, KS.",Y,,,,N,RPL,Standard Requisition,126513,"Jackson,Kelsey J",106822,"Laufer,Aaron W",115013,"Barnes,Lisa A",010,010-Open,USA,KS,HRSHLB
545806,RES264,ICLER,00016091,7/10/2018,010,7/10/2018,1,1,L,AZAHQ,0400606,AZA  RES - KEY,AZA,AZAWICH,"Advocate, Sr Partner Azamara","AZ Club Cruises position in Wichita, KS.",Y,,,,N,RPL,Standard Requisition,126513,"Jackson,Kelsey J",106822,"Laufer,Aaron W",115013,"Barnes,Lisa A",010,010-Open,USA,KS,HRSHLB
545810,TGS963,PROF,00016089,7/10/2018,010,7/10/2018,1,1,L,CCCHQ,0500630,Onboard Revenue Ops,CCI,CC1080,"Analyst, Sr. Food & Bev CCI",New position approved by Lisa Lutoff-Perlo and Brian Abel.,Y,,,,N,NEW,Standard Requisition,128287,"Councill,Elizabeth Louise",116830,"McCarthy,Michael",122192,"Del Llano,Janelle M.",010,010-Open,USA,FL,HRSHJDL
545812,AZA060,MGR,00013705,7/10/2018,010,7/10/2018,1,1,L,AZAHQ,0400501,Azamara SG&A,AZA,AZ1050,"Mgr, Hotel Operations AZA",,Y,,,,N,RPL,Standard Requisition,121009,"Daniels,Scott",121009,"Daniels,Scott",111708,"Dunn,Michelle",010,010-Open,USA,FL,HRSHPE
545814,EXE226,DIR,00003285,7/10/2018,010,7/10/2018,1,1,L,RCCHQ,0200503,Global Gov and Comm Relations,RCI,RC1050,"AVP, Government Relations LAC",,Y,,,,N,RPL,Standard Requisition,113739,"Gonzalez,Federico",129574,"Benford,Russell",127281,"Tuffy,Victoria",010,010-Open,USA,FL,HRSHVG
545820,SLS193,PROF,00015528,7/11/2018,010,7/11/2018,1,1,L,RCCHQ,0200727,Corp/ Incentives & FCC,RCI,RC1080,"AE, Marketing & Sales Support",,Y,,,,N,NEW,Standard Requisition,122625,"Mella,Cinthia",112746,"Fasano,Agnes Y",125904,"Canida,Marissa P.",010,010-Open,USA,FL,HRSHVG
545822,MKT371,PROF,00010470,7/11/2018,010,7/11/2018,1,1,L,RCCHQ,0200820,Marketing GTO,RCI,RC1080,"Acct Exec, Sr Guest Comm Cont",,Y,,,,N,RPL,Standard Requisition,124749,"De la Cruz,Leysa Marrero",124749,"De la Cruz,Leysa Marrero",125904,"Canida,Marissa P.",010,010-Open,USA,FL,HRSHPR
545832,RES184,ICLER,00004741,7/13/2018,010,7/13/2018,1,1,L,RCCHQ,0200625,Groups/STAR,RCI,MIRAMARTSS,"Rep, Shoreside Group","Backfill for bulk position. 
Blanket approval.",Y,,,,N,RPL,Standard Requisition,130002,"Toscano,Christopher",111734,"Riley,Marco S",125864,"Enriquez,Alice D.",010,010-Open,USA,OR,HRSHAE
545834,TMP200,CLER,TMP00625,7/13/2018,010,7/13/2018,1,1,L,RCCHQ,0200548,Shipboard EE Services,RCI,RC1050,Temp Position PT Hourly,,Y,,,,N,RPL,Standard Requisition,130271,"Oyebanji,Deborah K",123161,"Pereda,Matthew A.",128818,"Tomazela,Virginia",010,010-Open,USA,FL,HRSHVG
545834,TMP200,CLER,TMP00625,7/13/2018,010,7/13/2018,1,1,L,RCCHQ,0200548,Aquatics,RCI,RC1050,Temp Position PT Hourly,,Y,,,,N,RPL,Standard Requisition,130271,"Oyebanji,Deborah K",123161,"Pereda,Matthew A.",128818,"Tomazela,Virginia",010,010-Open,USA,FL,HRSHVG
545836,RES341,PROF,00015544,7/13/2018,010,7/13/2018,1,1,L,RCCHQ,0200611,Customer Service,RCI,MIRAMARTSS,"Spec, Royal Social Care",New approved position part of 2018 hiring plan.,Y,,,,N,NEW,Standard Requisition,129208,"Parker,Gabriella Moreno",124102,"Gomez,Christopher David",125864,"Enriquez,Alice D.",010,010-Open,USA,FL,HRSHAE
545838,RES813,ICLER,00010295,7/13/2018,010,7/13/2018,1,1,L,RCCHQ,0200625,Groups/STAR,RCI,MIRAMARTSS,"Spec, Groups Resolutions",Backfill for bulk position. Blanket approval.,Y,,,,N,RPL,Standard Requisition,125544,"Turner,Jessica E",101407,"Robinson,Evone S",125864,"Enriquez,Alice D.",010,010-Open,USA,FL,HRSHAE
545839,RES813,ICLER,00015545,7/13/2018,010,7/13/2018,1,1,L,RCCHQ,0200625,Groups/STAR,RCI,OREGON,"Spec, Groups Resolutions",,Y,,,,N,RPL,Standard Requisition,125544,"Turner,Jessica E",105169,"Olarra,Diane M",128942,"Henton,Laura",010,010-Open,USA,FL,HRSHLH
545840,GEN300,CLER,00004970,7/13/2018,010,7/13/2018,1,1,L,RCCHQ,0200623,Deployment and Itinerary Plan,RCI,RC1080,"Secretary, Sr Executive",,Y,,,,N,RPL,Standard Requisition,109496,"Rey,Jennifer Christy",100982,"Allen,Christopher S",111708,"Dunn,Michelle",010,010-Open,USA,FL,HRSHPE
545841,MAR302,PROF,00010884,7/13/2018,010,7/13/2018,1,1,L,RCCHQ,0200688,Fleet Optimization,RCI,RC1050,"Analyst, Sr Marine Ops PMO",Backfill for approved position.,Y,,,,N,RPL,Standard Requisition,128636,"Herrmann,Theodore Andres",118923,"Freyre II,Charles",122192,"Del Llano,Janelle M.",010,010-Open,USA,FL,HRSHJDL
545842,TGS466,PROF,00015546,7/13/2018,010,7/13/2018,1,1,L,RCCHQ,0200646,Newbuild & Modernization Prog.,RCI,RC1050,"Spec, Hotel Newbuild Projects",,Y,,,,N,NEW,Standard Requisition,108581,"Teissonniere,Louis Fabien",126548,"Hernandez,Jocelyn",106201,"Palacios,Katherine Kadison",010,010-Open,USA,FL,HRSHPR
545846,MKT089,SUPV,00001911,7/13/2018,010,7/13/2018,1,1,L,RCCHQ,0200757,Mktg.One to One Communications,RCI,RC1080,"Lead,Credit Card &Loyalty Mktg",,Y,,,,N,RPL,Standard Requisition,126224,"Sanchez,Kelly J.",126224,"Sanchez,Kelly J.",125904,"Canida,Marissa P.",010,010-Open,USA,FL,HRSHPR
545847,SLS812,ICLER,00002323,7/13/2018,010,7/13/2018,1,1,L,RCCHQ,0200708,708 CVP Service,RCI,OREGON,"Agent, CO Blended Service FT",,Y,,,,N,RPL,Standard Requisition,110404,"Bigelow,Aaron J",121629,"Tierney,Amber Marie",128942,"Henton,Laura",010,010-Open,USA,OR,HRSHLH
545848,TGS964,PROF,00015547,7/13/2018,010,7/13/2018,1,1,L,AZAHQ,0400501,Azamara SG&A,AZA,AZ1050,"Analyst, Hotel Ops AZA",,Y,,,,N,NEW,Standard Requisition,130225,"Diaz,Richard",121009,"Daniels,Scott",111708,"Dunn,Michelle",010,010-Open,USA,FL,HRSHPE
545858,PPG155,MGR,00003867,7/16/2018,010,7/16/2018,1,1,L,RCCHQ,0200627,Port Services,RCI,RC1050,"Mgr,Worldwide Port Ops Finance",replacing Nelson,Y,,,,N,RPL,Standard Requisition,102176,"Exantys,Tonais F",100503,"Riumbau,Conrad J",117603,"Mesa,Karina Almendral",010,010-Open,USA,FL,HRSHKA
545859,MKT633,SUPV,00000440,7/16/2018,010,7/16/2018,1,1,L,CCCHQ,0500797,Celebrity Web,CCI,CC1080,"Product Owner, eCommerce Digital",Approved new position.,Y,,,,N,NEW,Standard Requisition,127942,"Roldan,Carlos",127942,"Roldan,Carlos",122192,"Del Llano,Janelle M.",010,010-Open,USA,FL,HRSHJDL
545860,SLS314,ICLER,00012658,7/16/2018,010,7/23/2018,1,1,L,RCCHQ,0200713,Certified Vacation Planning,RCI,OREGON,"Team Lead, CO Inbound RCI",,Y,,,,N,RPL,Standard Requisition,121505,"Barton,Taylor E.",122044,"Weyer,Jason J.",128942,"Henton,Laura",010,010-Open,USA,OR,HRSHLH
545867,TOU595,CLER,00014950,7/16/2018,010,7/16/2018,1,1,L,RCCHQ,0200615,Guest Travel Services,RCI,MIRAMAR,"Agent, FT Air Sea",,Y,,,,N,NEW,Standard Requisition,111201,"Solomon,Wanda M",111622,"Rajkumar,Karen M",130417,"Ellingsworth-Perez,Priscilla",010,010-Open,USA,FL,HRSHPE
545869,REV121,DIR,00012995,7/16/2018,010,7/16/2018,1,1,L,RCCHQ,0200761,RCI Revenue Management 761,RCI,RC1080,"Dir, Rev Technolo&Segmentation",,Y,,,,N,NEW,Standard Requisition,126561,"Carroll,Joshua Aaron",126561,"Carroll,Joshua Aaron",125904,"Canida,Marissa P.",010,010-Open,USA,FL,HRSHPR
545878,HRS332,SUPV,00015550,7/17/2018,010,7/17/2018,1,1,L,RCCHQ,0200544,Recruiting,RCI,RC1080,"Lead, Newbuild Recruiter",,Y,,,,N,NEW,Standard Requisition,126571,"Barcia,Megan T.",130665,"Voticky,Elizabeth Anne",128818,"Tomazela,Virginia",010,010-Open,USA,FL,HRSHVG
545879,INT020,MGR,00016101,7/17/2018,010,7/17/2018,1,1,L,RCCHQ,0200747,747 Intl Market Planning - US,RCI,RC1080,"Mgr,Business Analysis&Planning",,Y,,,,N,NEW,Standard Requisition,112586,"Johnson,Matthew",111538,"Treacy,Sean S",125904,"Canida,Marissa P.",010,010-Open,USA,FL,HRSHVG
545880,MKT458,PROF,00016102,7/17/2018,010,7/17/2018,1,1,L,RCCHQ,0200747,747 Intl Market Planning - US,RCI,RC1080,"Analyst, Intl Market Planning",,Y,,,,N,NEW,Standard Requisition,125324,"Mor,Oren Joseph",111538,"Treacy,Sean S",125904,"Canida,Marissa P.",010,010-Open,USA,FL,HRSHVG
545886,SLS815,PROF,00000213,7/17/2018,010,7/17/2018,1,1,L,CCCHQ,0500715,CELSales Analysis & Automation,CCI,CC1080,"Analyst, Sr Travl Prtnr Commis",Backfill for approved position.,Y,,,,N,RPL,Standard Requisition,119609,"Garcia,Julio I",111650,"Pardo,Edward L",122192,"Del Llano,Janelle M.",010,010-Open,USA,FL,HRSHJDL
545891,SLS818,ICLER,00000186,7/17/2018,010,7/20/2018,1,1,L,CCCHQ,0500713,Sales CVP CEL,CCI,WESTON,"Agent,CO Inbound CCI",Termination generated job requisition,Y,,,,N,RPL,Standard Requisition,129349,"Carrasquillo,Sigfrido",112553,"Gonzalez,Aldo",115013,"Barnes,Lisa A",010,010-Open,USA,FL,HRSHLB
545895,HRS357,PROF,00007053,7/18/2018,010,7/18/2018,1,1,L,RCCHQ,0200540,RCI HR Executive,RCI,RC1050,"Analyst, Fin CAM Air Expense",,Y,,,,N,NEW,Standard Requisition,126366,"Green,Joshuah D.",126366,"Green,Joshuah D.",128818,"Tomazela,Virginia",010,010-Open,USA,FL,HRSHVG
545897,RES012,PROF,00016104,7/18/2018,010,7/18/2018,1,1,L,RCCHQ,0200703,RCI - Customer Outreach Ops,RCI,OREGON,"Trainer, CO Royal",,Y,,,,N,RPL,Standard Requisition,122252,"Quimby,Katarina L.",125971,"Harris,Robert E",128942,"Henton,Laura",010,010-Open,USA,OR,HRSHLH
545898,RES184,ICLER,00004804,7/18/2018,010,7/18/2018,1,1,L,RCCHQ,0200625,Groups/STAR,RCI,OREGON,"Rep, Shoreside Group",,Y,,,,N,RPL,Standard Requisition,130514,"Strimple,Capella Valentine",103730,"Williams,Anne-Jenell",128942,"Henton,Laura",010,010-Open,USA,OR,HRSHLH
545899,SLS192,DIR,00011437,7/18/2018,010,7/18/2018,1,1,L,RCCHQ,0200727,Corp/ Incentives & FCC,RCI,RC1080,"Dir,Glbl Corp Inct ChrtrSls&Op",,Y,,,,N,RPL,Standard Requisition,114866,"Cassidy,Lori",114866,"Cassidy,Lori",125904,"Canida,Marissa P.",010,010-Open,USA,FL,HRSHPR
545903,GEN225,CLER,00015556,7/19/2018,010,7/19/2018,1,1,L,RCCHQ,0200554,Digital,RCI,RC1050,"Secretary, Sr",we work admin,Y,,,,Y,NEW,Standard Requisition,131018,"Parejo,Marijana",122039,"Warren,Julie V.",114996,"Dunlap,Judith E",010,010-Open,USA,FL,HRSHJD
545905,SLS830,ICLER,00002371,7/19/2018,010,7/19/2018,1,1,L,RCCHQ,0200704,Consumer Outreach Groups Sale,RCI,MIRAMAR,"Agent, Group Admin RCI",Backfill for bulk position. Blanket approval.,Y,,,,N,RPL,Standard Requisition,124077,"Regueiro,Tatiana E",124086,"Gutierrez,Giselle Virginia",125864,"Enriquez,Alice D.",010,010-Open,USA,FL,HRSHAE
545906,ACC535,PROF,00010692,7/19/2018,010,7/19/2018,1,1,L,RCCHQ,0200550,RCI Accounting,RCI,RC1050,"Accountant I, Sr Ops Accting",,Y,,,,N,RPL,Standard Requisition,125620,"Barnat,Raimel",102907,"Schreiber,Gregory L",111708,"Dunn,Michelle",010,010-Open,USA,FL,HRSHVG
545912,MAR292,MGR,00015540,7/20/2018,010,7/20/2018,1,1,L,RCCHQ,0200594,Newbuilding Executive & Financ,RCI,RC1080,"Sr Mgr, NB Transformation",,Y,,,,N,NEW,Standard Requisition,113201,"Key Tielebein,Denise",100466,"Kulovaara,Harri U",117603,"Mesa,Karina Almendral",010,010-Open,USA,FL,HRSHKA
545913,MKT707,MGR,00000435,7/20/2018,010,7/20/2018,1,1,L,CCCHQ,0500799,Consumer Insights Unit,CCI,CC1040,"Mgr, Mktg Rsrch & Cons Insight",Backfill for approved position.,Y,,,,N,RPL,Standard Requisition,114993,"Tolkin,Aaron Scott",114993,"Tolkin,Aaron Scott",122192,"Del Llano,Janelle M.",010,010-Open,USA,FL,HRSHJDL
545919,PCH511,PROF,00002724,7/23/2018,010,7/23/2018,1,1,L,RCCHQ,0200586,RCI Purchasing - Technical,RCI,RC1050,"Analyst, Sr Vendor Management",,Y,,,,N,RPL,Standard Requisition,123408,"Edwards,Allan O.",115507,"Washington,Keith",117603,"Mesa,Karina Almendral",010,010-Open,USA,FL,HRSHPE
545921,ACC535,PROF,00012497,7/23/2018,010,7/23/2018,1,1,L,RCCHQ,0200550,RCI Accounting,RCI,RC1050,"Accountant I, Sr Ops Accting",,Y,,,,N,RPL,Standard Requisition,127885,"Leon,Rosielen",104267,"Riumbau,Maria",111708,"Dunn,Michelle",010,010-Open,USA,FL,HRSHVG
545926,MKT362,MGR,00012861,7/23/2018,010,7/23/2018,1,1,L,CCCHQ,0500750,CCI Domestic Mktg. 750,CCI,CC1080,"Mgr, Product Marketing",Backfill for approved position.,Y,,,,N,RPL,Standard Requisition,119014,"Pontiff,Kate Christine",102809,"Blanco,Nicole E",122192,"Del Llano,Janelle M.",010,010-Open,USA,FL,HRSHJDL
545931,RES606,CLER,00001986,7/24/2018,010,7/24/2018,1,1,L,RCCHQ,0200611,Customer Service,RCI,MIRAMARTSS,"Advocate, Lead Customer Serv",Backfill for bulk position. Blanket approval.,Y,,,,N,RPL,Standard Requisition,109265,"Abdullah,Albert",124102,"Gomez,Christopher David",125864,"Enriquez,Alice D.",010,010-Open,USA,FL,HRSHAE
545932,RES228,ICLER,00002215,7/24/2018,010,7/24/2018,1,1,L,RCCHQ,0200611,Customer Service,RCI,MIRAMARTSS,"Advocate,Post Gst Rel Call Ctr",Backfill for bulk position. Blanket approval.,Y,,,,N,RPL,Standard Requisition,127391,"Poschl,Cristina Elena",120174,"Pagon,Najwa A",125864,"Enriquez,Alice D.",010,010-Open,USA,FL,HRSHAE
545933,FIN713,PROF,00016106,7/24/2018,010,7/24/2018,1,1,L,CCCHQ,0500564,Brand Finance 564,CCI,CC1080,"Analyst, CCI Brand Fin & Anly",Approved new position.,Y,,,,N,NEW,Standard Requisition,128161,"De Leo,Nikolai",128161,"De Leo,Nikolai",122192,"Del Llano,Janelle M.",010,010-Open,USA,FL,HRSHJDL
545938,ENV390,DIR,00003336,7/24/2018,010,7/24/2018,1,1,L,RCCHQ,0200595,Maritime Safety,RCI,RC1050,"Dir, Management Systems",,Y,,,,N,RPL,Standard Requisition,129020,"Ross,Michael Brian",106670,"Murrell,Tracy J",128818,"Tomazela,Virginia",010,010-Open,USA,FL,HRSHVG
545939,HRS014,SUPV,00003512,7/24/2018,010,7/24/2018,1,1,L,RCCHQ,0200548,Shipboard EE Services,RCI,RC1080,"Lead, Shipbrd HR Systems",,Y,,,,N,RPL,Standard Requisition,109478,"Spigler,Eric E",116638,"Patel,Shailesh K",128818,"Tomazela,Virginia",010,010-Open,USA,FL,HRSHVG
545939,HRS014,SUPV,00003512,7/24/2018,010,7/24/2018,1,1,L,RCCHQ,0200548,Aquatics,RCI,RC1080,"Lead, Shipbrd HR Systems",,Y,,,,N,RPL,Standard Requisition,109478,"Spigler,Eric E",116638,"Patel,Shailesh K",128818,"Tomazela,Virginia",010,010-Open,USA,FL,HRSHVG
545941,HRS111,PROF,00006716,7/24/2018,010,7/24/2018,1,1,L,RCCHQ,0200543,RCI Corporate HR Services,RCI,RC1050,"Spec, Human Resources",,Y,,,,N,RPL,Standard Requisition,127295,"Garcia,Valentina",127281,"Tuffy,Victoria",128818,"Tomazela,Virginia",010,010-Open,USA,FL,HRSHVTO
545942,TSS006,SUPV,00015564,7/24/2018,010,7/24/2018,1,1,L,CCCHQ,0500609,CEL Reserv/Key Accounts,CCI,WICHITA,"Lead, Strat Analysis Gst Sls",New position.,Y,,,,N,NEW,Standard Requisition,130973,"Kadlec,Sarah D",113005,"Gomez,Angel C",115013,"Barnes,Lisa A",010,010-Open,USA,KS,HRSHLB
545946,RES335,SUPV,00015565,7/24/2018,010,7/24/2018,1,1,L,CCCHQ,0500609,CEL Reserv/Key Accounts,CCI,WICHITA,"Lead, Strategic Products",New Position.,Y,,,,N,NEW,Standard Requisition,130935,"Hotze,Astella D",125765,"Randall,Tanner",115013,"Barnes,Lisa A",010,010-Open,USA,KS,HRSHLB
545954,PCH338,PROF,CAR00065,7/25/2018,010,7/25/2018,1,1,L,RCCHQ,0200582,Purchasing - Newbuild 582,RCI,RC1080,"Buyer, Technical Projects",,,,,,N,NEW,Standard Requisition,125391,"Puebla,Andrew L",115515,"Morales,Miuking",130417,"Ellingsworth-Perez,Priscilla",010,010-Open,USA,FL,HRSHPE
545961,TGS066,CLER,00015566,7/25/2018,010,7/25/2018,1,1,L,CCCHQ,0500629,Casino Operations,CCI,CC1050,"Coordinator, Casino Operations",Replacement for temporary position that is now being hired as a permanent position.,,,,,N,RPL,Standard Requisition,130299,"Cores-Urgell,Alexandria",126641,"Lucash,Evan B.",122192,"Del Llano,Janelle M.",010,010-Open,USA,FL,HRSHJDL
545963,RES327,PROF,00015567,7/25/2018,010,7/25/2018,1,1,L,CCCHQ,0500609,CEL Reserv/Key Accounts,CCI,WICHITA,"Spec, CEL Project & Comm",Upgrading position.,,,,,N,NEW,Standard Requisition,130937,"Carlson,Ashley R",101121,"Cziske,Nancy",115013,"Barnes,Lisa A",010,010-Open,USA,KS,HRSHLB
545964,SLS222,PROF,00002689,7/25/2018,010,7/25/2018,1,1,L,RCCHQ,0200705,CVP Operations RCI,RCI,MIRAMAR,"Analyst, CO Business",New FTE; approved by SD.,,,,,N,NEW,Standard Requisition,130993,"Yates,Marisa C",119794,"Malhotra,Sameer",125864,"Enriquez,Alice D.",010,010-Open,USA,FL,HRSHAE
545965,FIN127,PROF,00010655,7/25/2018,010,7/25/2018,1,1,L,RCCHQ,0200594,Newbuilding Executive & Financ,RCI,RC1080,"Analyst, Sr Financial Newbuild",,,,,,N,RPL,Standard Requisition,125039,"Sowers,Nicholas Michael",119000,"Schneider,Daniel S.",117603,"Mesa,Karina Almendral",010,010-Open,USA,FL,HRSHKA
